^C:\USERS\DANNY\DESKTOP\BOX2D-MASTER\BOX2D\TESTBED\TESTS\TESTENTRIES.CPP
C:\USERS\DANNY\DESKTOP\BOX2D-MASTER\BOX2D\TESTBED\FRAMEWORK\TEST.H
C:\USERS\DANNY\DESKTOP\BOX2D-MASTER\BOX2D\BOX2D\BOX2D.H
C:\USERS\DANNY\DESKTOP\BOX2D-MASTER\BOX2D\BOX2D\COMMON\B2SETTINGS.H
C:\PROGRAM FILES (X86)\WINDOWS KITS\10\INCLUDE\10.0.10240.0\UCRT\STDDEF.H
C:\PROGRAM FILES (X86)\WINDOWS KITS\10\INCLUDE\10.0.10240.0\UCRT\CORECRT.H
C:\PROGRAM FILES (X86)\MICROSOFT VISUAL STUDIO 14.0\VC\INCLUDE\VCRUNTIME.H
C:\PROGRAM FILES (X86)\MICROSOFT VISUAL STUDIO 14.0\VC\INCLUDE\SAL.H
C:\PROGRAM FILES (X86)\MICROSOFT VISUAL STUDIO 14.0\VC\INCLUDE\CONCURRENCYSAL.H
C:\PROGRAM FILES (X86)\MICROSOFT VISUAL STUDIO 14.0\VC\INCLUDE\VADEFS.H
C:\PROGRAM FILES (X86)\WINDOWS KITS\10\INCLUDE\10.0.10240.0\UCRT\ASSERT.H
C:\PROGRAM FILES (X86)\WINDOWS KITS\10\INCLUDE\10.0.10240.0\UCRT\FLOAT.H
C:\USERS\DANNY\DESKTOP\BOX2D-MASTER\BOX2D\BOX2D\COMMON\B2DRAW.H
C:\USERS\DANNY\DESKTOP\BOX2D-MASTER\BOX2D\BOX2D\COMMON\B2MATH.H
C:\PROGRAM FILES (X86)\WINDOWS KITS\10\INCLUDE\10.0.10240.0\UCRT\MATH.H
C:\USERS\DANNY\DESKTOP\BOX2D-MASTER\BOX2D\BOX2D\COMMON\B2TIMER.H
C:\USERS\DANNY\DESKTOP\BOX2D-MASTER\BOX2D\BOX2D\COLLISION\SHAPES\B2CIRCLESHAPE.H
C:\USERS\DANNY\DESKTOP\BOX2D-MASTER\BOX2D\BOX2D\COLLISION\SHAPES\B2SHAPE.H
C:\USERS\DANNY\DESKTOP\BOX2D-MASTER\BOX2D\BOX2D\COMMON\B2BLOCKALLOCATOR.H
C:\USERS\DANNY\DESKTOP\BOX2D-MASTER\BOX2D\BOX2D\COLLISION\B2COLLISION.H
C:\PROGRAM FILES (X86)\MICROSOFT VISUAL STUDIO 14.0\VC\INCLUDE\LIMITS.H
C:\USERS\DANNY\DESKTOP\BOX2D-MASTER\BOX2D\BOX2D\COLLISION\SHAPES\B2EDGESHAPE.H
C:\USERS\DANNY\DESKTOP\BOX2D-MASTER\BOX2D\BOX2D\COLLISION\SHAPES\B2CHAINSHAPE.H
C:\USERS\DANNY\DESKTOP\BOX2D-MASTER\BOX2D\BOX2D\COLLISION\SHAPES\B2POLYGONSHAPE.H
C:\USERS\DANNY\DESKTOP\BOX2D-MASTER\BOX2D\BOX2D\COLLISION\B2BROADPHASE.H
C:\USERS\DANNY\DESKTOP\BOX2D-MASTER\BOX2D\BOX2D\COLLISION\B2DYNAMICTREE.H
C:\USERS\DANNY\DESKTOP\BOX2D-MASTER\BOX2D\BOX2D\COMMON\B2GROWABLESTACK.H
C:\PROGRAM FILES (X86)\WINDOWS KITS\10\INCLUDE\10.0.10240.0\UCRT\STRING.H
C:\PROGRAM FILES (X86)\WINDOWS KITS\10\INCLUDE\10.0.10240.0\UCRT\CORECRT_MEMORY.H
C:\PROGRAM FILES (X86)\WINDOWS KITS\10\INCLUDE\10.0.10240.0\UCRT\CORECRT_MEMCPY_S.H
C:\PROGRAM FILES (X86)\WINDOWS KITS\10\INCLUDE\10.0.10240.0\UCRT\ERRNO.H
C:\PROGRAM FILES (X86)\MICROSOFT VISUAL STUDIO 14.0\VC\INCLUDE\VCRUNTIME_STRING.H
C:\PROGRAM FILES (X86)\WINDOWS KITS\10\INCLUDE\10.0.10240.0\UCRT\CORECRT_WSTRING.H
C:\PROGRAM FILES (X86)\MICROSOFT VISUAL STUDIO 14.0\VC\INCLUDE\ALGORITHM
C:\PROGRAM FILES (X86)\MICROSOFT VISUAL STUDIO 14.0\VC\INCLUDE\XMEMORY
C:\PROGRAM FILES (X86)\MICROSOFT VISUAL STUDIO 14.0\VC\INCLUDE\XMEMORY0
C:\PROGRAM FILES (X86)\MICROSOFT VISUAL STUDIO 14.0\VC\INCLUDE\CSTDINT
C:\PROGRAM FILES (X86)\MICROSOFT VISUAL STUDIO 14.0\VC\INCLUDE\YVALS.H
C:\PROGRAM FILES (X86)\MICROSOFT VISUAL STUDIO 14.0\VC\INCLUDE\XKEYCHECK.H
C:\PROGRAM FILES (X86)\MICROSOFT VISUAL STUDIO 14.0\VC\INCLUDE\CRTDEFS.H
C:\PROGRAM FILES (X86)\MICROSOFT VISUAL STUDIO 14.0\VC\INCLUDE\USE_ANSI.H
C:\PROGRAM FILES (X86)\MICROSOFT VISUAL STUDIO 14.0\VC\INCLUDE\STDINT.H
C:\PROGRAM FILES (X86)\MICROSOFT VISUAL STUDIO 14.0\VC\INCLUDE\CSTDLIB
C:\PROGRAM FILES (X86)\WINDOWS KITS\10\INCLUDE\10.0.10240.0\UCRT\STDLIB.H
C:\PROGRAM FILES (X86)\WINDOWS KITS\10\INCLUDE\10.0.10240.0\UCRT\CORECRT_MALLOC.H
C:\PROGRAM FILES (X86)\WINDOWS KITS\10\INCLUDE\10.0.10240.0\UCRT\CORECRT_SEARCH.H
C:\PROGRAM FILES (X86)\WINDOWS KITS\10\INCLUDE\10.0.10240.0\UCRT\CORECRT_WSTDLIB.H
C:\PROGRAM FILES (X86)\MICROSOFT VISUAL STUDIO 14.0\VC\INCLUDE\LIMITS
C:\PROGRAM FILES (X86)\MICROSOFT VISUAL STUDIO 14.0\VC\INCLUDE\YMATH.H
C:\PROGRAM FILES (X86)\MICROSOFT VISUAL STUDIO 14.0\VC\INCLUDE\CFLOAT
C:\PROGRAM FILES (X86)\MICROSOFT VISUAL STUDIO 14.0\VC\INCLUDE\CLIMITS
C:\PROGRAM FILES (X86)\MICROSOFT VISUAL STUDIO 14.0\VC\INCLUDE\CMATH
C:\PROGRAM FILES (X86)\MICROSOFT VISUAL STUDIO 14.0\VC\INCLUDE\XTGMATH.H
C:\PROGRAM FILES (X86)\MICROSOFT VISUAL STUDIO 14.0\VC\INCLUDE\XTR1COMMON
C:\PROGRAM FILES (X86)\MICROSOFT VISUAL STUDIO 14.0\VC\INCLUDE\CWCHAR
C:\PROGRAM FILES (X86)\WINDOWS KITS\10\INCLUDE\10.0.10240.0\UCRT\WCHAR.H
C:\PROGRAM FILES (X86)\WINDOWS KITS\10\INCLUDE\10.0.10240.0\UCRT\CORECRT_WCONIO.H
C:\PROGRAM FILES (X86)\WINDOWS KITS\10\INCLUDE\10.0.10240.0\UCRT\CORECRT_STDIO_CONFIG.H
C:\PROGRAM FILES (X86)\WINDOWS KITS\10\INCLUDE\10.0.10240.0\UCRT\CORECRT_WCTYPE.H
C:\PROGRAM FILES (X86)\WINDOWS KITS\10\INCLUDE\10.0.10240.0\UCRT\CORECRT_WDIRECT.H
C:\PROGRAM FILES (X86)\WINDOWS KITS\10\INCLUDE\10.0.10240.0\UCRT\CORECRT_WIO.H
C:\PROGRAM FILES (X86)\WINDOWS KITS\10\INCLUDE\10.0.10240.0\UCRT\CORECRT_SHARE.H
C:\PROGRAM FILES (X86)\WINDOWS KITS\10\INCLUDE\10.0.10240.0\UCRT\CORECRT_WPROCESS.H
C:\PROGRAM FILES (X86)\WINDOWS KITS\10\INCLUDE\10.0.10240.0\UCRT\CORECRT_WSTDIO.H
C:\PROGRAM FILES (X86)\WINDOWS KITS\10\INCLUDE\10.0.10240.0\UCRT\CORECRT_WTIME.H
C:\PROGRAM FILES (X86)\WINDOWS KITS\10\INCLUDE\10.0.10240.0\UCRT\SYS\STAT.H
C:\PROGRAM FILES (X86)\WINDOWS KITS\10\INCLUDE\10.0.10240.0\UCRT\SYS\TYPES.H
C:\PROGRAM FILES (X86)\MICROSOFT VISUAL STUDIO 14.0\VC\INCLUDE\XSTDDEF
C:\PROGRAM FILES (X86)\MICROSOFT VISUAL STUDIO 14.0\VC\INCLUDE\CSTDDEF
C:\PROGRAM FILES (X86)\MICROSOFT VISUAL STUDIO 14.0\VC\INCLUDE\INITIALIZER_LIST
C:\PROGRAM FILES (X86)\MICROSOFT VISUAL STUDIO 14.0\VC\INCLUDE\NEW
C:\PROGRAM FILES (X86)\MICROSOFT VISUAL STUDIO 14.0\VC\INCLUDE\EXCEPTION
C:\PROGRAM FILES (X86)\MICROSOFT VISUAL STUDIO 14.0\VC\INCLUDE\TYPE_TRAITS
C:\PROGRAM FILES (X86)\WINDOWS KITS\10\INCLUDE\10.0.10240.0\UCRT\MALLOC.H
C:\PROGRAM FILES (X86)\MICROSOFT VISUAL STUDIO 14.0\VC\INCLUDE\VCRUNTIME_EXCEPTION.H
C:\PROGRAM FILES (X86)\MICROSOFT VISUAL STUDIO 14.0\VC\INCLUDE\EH.H
C:\PROGRAM FILES (X86)\WINDOWS KITS\10\INCLUDE\10.0.10240.0\UCRT\CORECRT_TERMINATE.H
C:\PROGRAM FILES (X86)\MICROSOFT VISUAL STUDIO 14.0\VC\INCLUDE\VCRUNTIME_NEW.H
C:\PROGRAM FILES (X86)\MICROSOFT VISUAL STUDIO 14.0\VC\INCLUDE\XUTILITY
C:\PROGRAM FILES (X86)\MICROSOFT VISUAL STUDIO 14.0\VC\INCLUDE\UTILITY
C:\PROGRAM FILES (X86)\MICROSOFT VISUAL STUDIO 14.0\VC\INCLUDE\IOSFWD
C:\PROGRAM FILES (X86)\MICROSOFT VISUAL STUDIO 14.0\VC\INCLUDE\CSTDIO
C:\PROGRAM FILES (X86)\WINDOWS KITS\10\INCLUDE\10.0.10240.0\UCRT\STDIO.H
C:\PROGRAM FILES (X86)\MICROSOFT VISUAL STUDIO 14.0\VC\INCLUDE\CSTRING
C:\PROGRAM FILES (X86)\WINDOWS KITS\10\INCLUDE\10.0.10240.0\UCRT\CRTDBG.H
C:\PROGRAM FILES (X86)\MICROSOFT VISUAL STUDIO 14.0\VC\INCLUDE\VCRUNTIME_NEW_DEBUG.H
C:\PROGRAM FILES (X86)\MICROSOFT VISUAL STUDIO 14.0\VC\INCLUDE\XATOMIC0.H
C:\PROGRAM FILES (X86)\MICROSOFT VISUAL STUDIO 14.0\VC\INCLUDE\INTRIN.H
C:\PROGRAM FILES (X86)\MICROSOFT VISUAL STUDIO 14.0\VC\INCLUDE\SETJMP.H
C:\PROGRAM FILES (X86)\MICROSOFT VISUAL STUDIO 14.0\VC\INCLUDE\IMMINTRIN.H
C:\PROGRAM FILES (X86)\MICROSOFT VISUAL STUDIO 14.0\VC\INCLUDE\WMMINTRIN.H
C:\PROGRAM FILES (X86)\MICROSOFT VISUAL STUDIO 14.0\VC\INCLUDE\NMMINTRIN.H
C:\PROGRAM FILES (X86)\MICROSOFT VISUAL STUDIO 14.0\VC\INCLUDE\SMMINTRIN.H
C:\PROGRAM FILES (X86)\MICROSOFT VISUAL STUDIO 14.0\VC\INCLUDE\TMMINTRIN.H
C:\PROGRAM FILES (X86)\MICROSOFT VISUAL STUDIO 14.0\VC\INCLUDE\PMMINTRIN.H
C:\PROGRAM FILES (X86)\MICROSOFT VISUAL STUDIO 14.0\VC\INCLUDE\EMMINTRIN.H
C:\PROGRAM FILES (X86)\MICROSOFT VISUAL STUDIO 14.0\VC\INCLUDE\XMMINTRIN.H
C:\PROGRAM FILES (X86)\MICROSOFT VISUAL STUDIO 14.0\VC\INCLUDE\MMINTRIN.H
C:\PROGRAM FILES (X86)\MICROSOFT VISUAL STUDIO 14.0\VC\INCLUDE\AMMINTRIN.H
C:\PROGRAM FILES (X86)\MICROSOFT VISUAL STUDIO 14.0\VC\INCLUDE\MM3DNOW.H
C:\USERS\DANNY\DESKTOP\BOX2D-MASTER\BOX2D\BOX2D\COLLISION\B2DISTANCE.H
C:\USERS\DANNY\DESKTOP\BOX2D-MASTER\BOX2D\BOX2D\COLLISION\B2TIMEOFIMPACT.H
C:\USERS\DANNY\DESKTOP\BOX2D-MASTER\BOX2D\BOX2D\DYNAMICS\B2BODY.H
C:\PROGRAM FILES (X86)\MICROSOFT VISUAL STUDIO 14.0\VC\INCLUDE\MEMORY
C:\PROGRAM FILES (X86)\MICROSOFT VISUAL STUDIO 14.0\VC\INCLUDE\TYPEINFO
C:\PROGRAM FILES (X86)\MICROSOFT VISUAL STUDIO 14.0\VC\INCLUDE\VCRUNTIME_TYPEINFO.H
C:\USERS\DANNY\DESKTOP\BOX2D-MASTER\BOX2D\BOX2D\DYNAMICS\B2FIXTURE.H
C:\USERS\DANNY\DESKTOP\BOX2D-MASTER\BOX2D\BOX2D\DYNAMICS\B2WORLDCALLBACKS.H
C:\USERS\DANNY\DESKTOP\BOX2D-MASTER\BOX2D\BOX2D\DYNAMICS\B2TIMESTEP.H
C:\USERS\DANNY\DESKTOP\BOX2D-MASTER\BOX2D\BOX2D\DYNAMICS\B2WORLD.H
C:\USERS\DANNY\DESKTOP\BOX2D-MASTER\BOX2D\BOX2D\COMMON\B2STACKALLOCATOR.H
C:\USERS\DANNY\DESKTOP\BOX2D-MASTER\BOX2D\BOX2D\DYNAMICS\B2CONTACTMANAGER.H
C:\USERS\DANNY\DESKTOP\BOX2D-MASTER\BOX2D\BOX2D\DYNAMICS\CONTACTS\B2CONTACT.H
C:\USERS\DANNY\DESKTOP\BOX2D-MASTER\BOX2D\BOX2D\DYNAMICS\JOINTS\B2DISTANCEJOINT.H
C:\USERS\DANNY\DESKTOP\BOX2D-MASTER\BOX2D\BOX2D\DYNAMICS\JOINTS\B2JOINT.H
C:\USERS\DANNY\DESKTOP\BOX2D-MASTER\BOX2D\BOX2D\DYNAMICS\JOINTS\B2FRICTIONJOINT.H
C:\USERS\DANNY\DESKTOP\BOX2D-MASTER\BOX2D\BOX2D\DYNAMICS\JOINTS\B2GEARJOINT.H
C:\USERS\DANNY\DESKTOP\BOX2D-MASTER\BOX2D\BOX2D\DYNAMICS\JOINTS\B2MOTORJOINT.H
C:\USERS\DANNY\DESKTOP\BOX2D-MASTER\BOX2D\BOX2D\DYNAMICS\JOINTS\B2MOUSEJOINT.H
C:\USERS\DANNY\DESKTOP\BOX2D-MASTER\BOX2D\BOX2D\DYNAMICS\JOINTS\B2PRISMATICJOINT.H
C:\USERS\DANNY\DESKTOP\BOX2D-MASTER\BOX2D\BOX2D\DYNAMICS\JOINTS\B2PULLEYJOINT.H
C:\USERS\DANNY\DESKTOP\BOX2D-MASTER\BOX2D\BOX2D\DYNAMICS\JOINTS\B2REVOLUTEJOINT.H
C:\USERS\DANNY\DESKTOP\BOX2D-MASTER\BOX2D\BOX2D\DYNAMICS\JOINTS\B2ROPEJOINT.H
C:\USERS\DANNY\DESKTOP\BOX2D-MASTER\BOX2D\BOX2D\DYNAMICS\JOINTS\B2WELDJOINT.H
C:\USERS\DANNY\DESKTOP\BOX2D-MASTER\BOX2D\BOX2D\DYNAMICS\JOINTS\B2WHEELJOINT.H
C:\USERS\DANNY\DESKTOP\BOX2D-MASTER\BOX2D\TESTBED\FRAMEWORK\DEBUGDRAW.H
C:\USERS\DANNY\DESKTOP\BOX2D-MASTER\BOX2D\GLEW\GLEW.H
C:\PROGRAM FILES (X86)\WINDOWS KITS\8.1\INCLUDE\UM\GL\GLU.H
C:\PROGRAM FILES (X86)\WINDOWS KITS\8.1\INCLUDE\SHARED\WINAPIFAMILY.H
C:\PROGRAM FILES (X86)\WINDOWS KITS\8.1\INCLUDE\UM\GL\GL.H
C:\USERS\DANNY\DESKTOP\BOX2D-MASTER\BOX2D\GLFW\GLFW3.H
C:\USERS\DANNY\DESKTOP\BOX2D-MASTER\BOX2D\TESTBED\TESTS\ADDPAIR.H
C:\USERS\DANNY\DESKTOP\BOX2D-MASTER\BOX2D\TESTBED\TESTS\APPLYFORCE.H
C:\USERS\DANNY\DESKTOP\BOX2D-MASTER\BOX2D\TESTBED\TESTS\BASICSLIDERCRANK.H
C:\USERS\DANNY\DESKTOP\BOX2D-MASTER\BOX2D\TESTBED\TESTS\BODYTYPES.H
C:\USERS\DANNY\DESKTOP\BOX2D-MASTER\BOX2D\TESTBED\TESTS\BREAKABLE.H
C:\USERS\DANNY\DESKTOP\BOX2D-MASTER\BOX2D\TESTBED\TESTS\BRIDGE.H
C:\USERS\DANNY\DESKTOP\BOX2D-MASTER\BOX2D\TESTBED\TESTS\BULLETTEST.H
C:\USERS\DANNY\DESKTOP\BOX2D-MASTER\BOX2D\TESTBED\TESTS\CANTILEVER.H
C:\USERS\DANNY\DESKTOP\BOX2D-MASTER\BOX2D\TESTBED\TESTS\CAR.H
C:\USERS\DANNY\DESKTOP\BOX2D-MASTER\BOX2D\TESTBED\TESTS\CONTINUOUSTEST.H
C:\USERS\DANNY\DESKTOP\BOX2D-MASTER\BOX2D\TESTBED\TESTS\CHAIN.H
C:\USERS\DANNY\DESKTOP\BOX2D-MASTER\BOX2D\TESTBED\TESTS\CHARACTERCOLLISION.H
C:\USERS\DANNY\DESKTOP\BOX2D-MASTER\BOX2D\TESTBED\TESTS\COLLISIONFILTERING.H
C:\USERS\DANNY\DESKTOP\BOX2D-MASTER\BOX2D\TESTBED\TESTS\COLLISIONPROCESSING.H
C:\USERS\DANNY\DESKTOP\BOX2D-MASTER\BOX2D\TESTBED\TESTS\COMPOUNDSHAPES.H
C:\USERS\DANNY\DESKTOP\BOX2D-MASTER\BOX2D\TESTBED\TESTS\CONFINED.H
C:\USERS\DANNY\DESKTOP\BOX2D-MASTER\BOX2D\TESTBED\TESTS\CONVEXHULL.H
C:\USERS\DANNY\DESKTOP\BOX2D-MASTER\BOX2D\TESTBED\TESTS\CONVEYORBELT.H
C:\USERS\DANNY\DESKTOP\BOX2D-MASTER\BOX2D\TESTBED\TESTS\DISTANCETEST.H
C:\USERS\DANNY\DESKTOP\BOX2D-MASTER\BOX2D\TESTBED\TESTS\DOMINOS.H
C:\USERS\DANNY\DESKTOP\BOX2D-MASTER\BOX2D\TESTBED\TESTS\DUMPSHELL.H
C:\USERS\DANNY\DESKTOP\BOX2D-MASTER\BOX2D\TESTBED\TESTS\DYNAMICTREETEST.H
C:\USERS\DANNY\DESKTOP\BOX2D-MASTER\BOX2D\TESTBED\TESTS\EDGESHAPES.H
C:\USERS\DANNY\DESKTOP\BOX2D-MASTER\BOX2D\TESTBED\TESTS\EDGETEST.H
C:\USERS\DANNY\DESKTOP\BOX2D-MASTER\BOX2D\TESTBED\TESTS\GEARS.H
C:\USERS\DANNY\DESKTOP\BOX2D-MASTER\BOX2D\TESTBED\TESTS\HEAVYONLIGHT.H
C:\USERS\DANNY\DESKTOP\BOX2D-MASTER\BOX2D\TESTBED\TESTS\HEAVYONLIGHTTWO.H
C:\USERS\DANNY\DESKTOP\BOX2D-MASTER\BOX2D\TESTBED\TESTS\MOBILE.H
C:\USERS\DANNY\DESKTOP\BOX2D-MASTER\BOX2D\TESTBED\TESTS\MOBILEBALANCED.H
C:\USERS\DANNY\DESKTOP\BOX2D-MASTER\BOX2D\TESTBED\TESTS\MOTORJOINT.H
C:\USERS\DANNY\DESKTOP\BOX2D-MASTER\BOX2D\TESTBED\TESTS\ONESIDEDPLATFORM.H
C:\USERS\DANNY\DESKTOP\BOX2D-MASTER\BOX2D\TESTBED\TESTS\PINBALL.H
C:\USERS\DANNY\DESKTOP\BOX2D-MASTER\BOX2D\TESTBED\TESTS\POLYCOLLISION.H
C:\USERS\DANNY\DESKTOP\BOX2D-MASTER\BOX2D\TESTBED\TESTS\POLYSHAPES.H
C:\USERS\DANNY\DESKTOP\BOX2D-MASTER\BOX2D\TESTBED\TESTS\PRISMATIC.H
C:\USERS\DANNY\DESKTOP\BOX2D-MASTER\BOX2D\TESTBED\TESTS\PULLEYS.H
C:\USERS\DANNY\DESKTOP\BOX2D-MASTER\BOX2D\TESTBED\TESTS\PYRAMID.H
C:\USERS\DANNY\DESKTOP\BOX2D-MASTER\BOX2D\TESTBED\TESTS\RAYCAST.H
C:\USERS\DANNY\DESKTOP\BOX2D-MASTER\BOX2D\TESTBED\TESTS\REVOLUTE.H
C:\USERS\DANNY\DESKTOP\BOX2D-MASTER\BOX2D\TESTBED\TESTS\ROPEJOINT.H
C:\USERS\DANNY\DESKTOP\BOX2D-MASTER\BOX2D\TESTBED\TESTS\SENSORTEST.H
C:\USERS\DANNY\DESKTOP\BOX2D-MASTER\BOX2D\TESTBED\TESTS\SHAPEEDITING.H
C:\USERS\DANNY\DESKTOP\BOX2D-MASTER\BOX2D\TESTBED\TESTS\SLIDERCRANK.H
C:\USERS\DANNY\DESKTOP\BOX2D-MASTER\BOX2D\TESTBED\TESTS\SPHERESTACK.H
C:\USERS\DANNY\DESKTOP\BOX2D-MASTER\BOX2D\TESTBED\TESTS\THEOJANSEN.H
C:\USERS\DANNY\DESKTOP\BOX2D-MASTER\BOX2D\TESTBED\TESTS\TILES.H
C:\USERS\DANNY\DESKTOP\BOX2D-MASTER\BOX2D\TESTBED\TESTS\TIMEOFIMPACT.H
C:\USERS\DANNY\DESKTOP\BOX2D-MASTER\BOX2D\TESTBED\TESTS\TUMBLER.H
C:\USERS\DANNY\DESKTOP\BOX2D-MASTER\BOX2D\TESTBED\TESTS\VARYINGFRICTION.H
C:\USERS\DANNY\DESKTOP\BOX2D-MASTER\BOX2D\TESTBED\TESTS\VARYINGRESTITUTION.H
C:\USERS\DANNY\DESKTOP\BOX2D-MASTER\BOX2D\TESTBED\TESTS\VERTICALSTACK.H
C:\USERS\DANNY\DESKTOP\BOX2D-MASTER\BOX2D\TESTBED\TESTS\WEB.H
^C:\USERS\DANNY\DESKTOP\BOX2D-MASTER\BOX2D\TESTBED\FRAMEWORK\TEST.CPP
C:\USERS\DANNY\DESKTOP\BOX2D-MASTER\BOX2D\TESTBED\FRAMEWORK\TEST.H
C:\USERS\DANNY\DESKTOP\BOX2D-MASTER\BOX2D\BOX2D\BOX2D.H
C:\USERS\DANNY\DESKTOP\BOX2D-MASTER\BOX2D\BOX2D\COMMON\B2SETTINGS.H
C:\PROGRAM FILES (X86)\WINDOWS KITS\10\INCLUDE\10.0.10240.0\UCRT\STDDEF.H
C:\PROGRAM FILES (X86)\WINDOWS KITS\10\INCLUDE\10.0.10240.0\UCRT\CORECRT.H
C:\PROGRAM FILES (X86)\MICROSOFT VISUAL STUDIO 14.0\VC\INCLUDE\VCRUNTIME.H
C:\PROGRAM FILES (X86)\MICROSOFT VISUAL STUDIO 14.0\VC\INCLUDE\SAL.H
C:\PROGRAM FILES (X86)\MICROSOFT VISUAL STUDIO 14.0\VC\INCLUDE\CONCURRENCYSAL.H
C:\PROGRAM FILES (X86)\MICROSOFT VISUAL STUDIO 14.0\VC\INCLUDE\VADEFS.H
C:\PROGRAM FILES (X86)\WINDOWS KITS\10\INCLUDE\10.0.10240.0\UCRT\ASSERT.H
C:\PROGRAM FILES (X86)\WINDOWS KITS\10\INCLUDE\10.0.10240.0\UCRT\FLOAT.H
C:\USERS\DANNY\DESKTOP\BOX2D-MASTER\BOX2D\BOX2D\COMMON\B2DRAW.H
C:\USERS\DANNY\DESKTOP\BOX2D-MASTER\BOX2D\BOX2D\COMMON\B2MATH.H
C:\PROGRAM FILES (X86)\WINDOWS KITS\10\INCLUDE\10.0.10240.0\UCRT\MATH.H
C:\USERS\DANNY\DESKTOP\BOX2D-MASTER\BOX2D\BOX2D\COMMON\B2TIMER.H
C:\USERS\DANNY\DESKTOP\BOX2D-MASTER\BOX2D\BOX2D\COLLISION\SHAPES\B2CIRCLESHAPE.H
C:\USERS\DANNY\DESKTOP\BOX2D-MASTER\BOX2D\BOX2D\COLLISION\SHAPES\B2SHAPE.H
C:\USERS\DANNY\DESKTOP\BOX2D-MASTER\BOX2D\BOX2D\COMMON\B2BLOCKALLOCATOR.H
C:\USERS\DANNY\DESKTOP\BOX2D-MASTER\BOX2D\BOX2D\COLLISION\B2COLLISION.H
C:\PROGRAM FILES (X86)\MICROSOFT VISUAL STUDIO 14.0\VC\INCLUDE\LIMITS.H
C:\USERS\DANNY\DESKTOP\BOX2D-MASTER\BOX2D\BOX2D\COLLISION\SHAPES\B2EDGESHAPE.H
C:\USERS\DANNY\DESKTOP\BOX2D-MASTER\BOX2D\BOX2D\COLLISION\SHAPES\B2CHAINSHAPE.H
C:\USERS\DANNY\DESKTOP\BOX2D-MASTER\BOX2D\BOX2D\COLLISION\SHAPES\B2POLYGONSHAPE.H
C:\USERS\DANNY\DESKTOP\BOX2D-MASTER\BOX2D\BOX2D\COLLISION\B2BROADPHASE.H
C:\USERS\DANNY\DESKTOP\BOX2D-MASTER\BOX2D\BOX2D\COLLISION\B2DYNAMICTREE.H
C:\USERS\DANNY\DESKTOP\BOX2D-MASTER\BOX2D\BOX2D\COMMON\B2GROWABLESTACK.H
C:\PROGRAM FILES (X86)\WINDOWS KITS\10\INCLUDE\10.0.10240.0\UCRT\STRING.H
C:\PROGRAM FILES (X86)\WINDOWS KITS\10\INCLUDE\10.0.10240.0\UCRT\CORECRT_MEMORY.H
C:\PROGRAM FILES (X86)\WINDOWS KITS\10\INCLUDE\10.0.10240.0\UCRT\CORECRT_MEMCPY_S.H
C:\PROGRAM FILES (X86)\WINDOWS KITS\10\INCLUDE\10.0.10240.0\UCRT\ERRNO.H
C:\PROGRAM FILES (X86)\MICROSOFT VISUAL STUDIO 14.0\VC\INCLUDE\VCRUNTIME_STRING.H
C:\PROGRAM FILES (X86)\WINDOWS KITS\10\INCLUDE\10.0.10240.0\UCRT\CORECRT_WSTRING.H
C:\PROGRAM FILES (X86)\MICROSOFT VISUAL STUDIO 14.0\VC\INCLUDE\ALGORITHM
C:\PROGRAM FILES (X86)\MICROSOFT VISUAL STUDIO 14.0\VC\INCLUDE\XMEMORY
C:\PROGRAM FILES (X86)\MICROSOFT VISUAL STUDIO 14.0\VC\INCLUDE\XMEMORY0
C:\PROGRAM FILES (X86)\MICROSOFT VISUAL STUDIO 14.0\VC\INCLUDE\CSTDINT
C:\PROGRAM FILES (X86)\MICROSOFT VISUAL STUDIO 14.0\VC\INCLUDE\YVALS.H
C:\PROGRAM FILES (X86)\MICROSOFT VISUAL STUDIO 14.0\VC\INCLUDE\XKEYCHECK.H
C:\PROGRAM FILES (X86)\MICROSOFT VISUAL STUDIO 14.0\VC\INCLUDE\CRTDEFS.H
C:\PROGRAM FILES (X86)\MICROSOFT VISUAL STUDIO 14.0\VC\INCLUDE\USE_ANSI.H
C:\PROGRAM FILES (X86)\MICROSOFT VISUAL STUDIO 14.0\VC\INCLUDE\STDINT.H
C:\PROGRAM FILES (X86)\MICROSOFT VISUAL STUDIO 14.0\VC\INCLUDE\CSTDLIB
C:\PROGRAM FILES (X86)\WINDOWS KITS\10\INCLUDE\10.0.10240.0\UCRT\STDLIB.H
C:\PROGRAM FILES (X86)\WINDOWS KITS\10\INCLUDE\10.0.10240.0\UCRT\CORECRT_MALLOC.H
C:\PROGRAM FILES (X86)\WINDOWS KITS\10\INCLUDE\10.0.10240.0\UCRT\CORECRT_SEARCH.H
C:\PROGRAM FILES (X86)\WINDOWS KITS\10\INCLUDE\10.0.10240.0\UCRT\CORECRT_WSTDLIB.H
C:\PROGRAM FILES (X86)\MICROSOFT VISUAL STUDIO 14.0\VC\INCLUDE\LIMITS
C:\PROGRAM FILES (X86)\MICROSOFT VISUAL STUDIO 14.0\VC\INCLUDE\YMATH.H
C:\PROGRAM FILES (X86)\MICROSOFT VISUAL STUDIO 14.0\VC\INCLUDE\CFLOAT
C:\PROGRAM FILES (X86)\MICROSOFT VISUAL STUDIO 14.0\VC\INCLUDE\CLIMITS
C:\PROGRAM FILES (X86)\MICROSOFT VISUAL STUDIO 14.0\VC\INCLUDE\CMATH
C:\PROGRAM FILES (X86)\MICROSOFT VISUAL STUDIO 14.0\VC\INCLUDE\XTGMATH.H
C:\PROGRAM FILES (X86)\MICROSOFT VISUAL STUDIO 14.0\VC\INCLUDE\XTR1COMMON
C:\PROGRAM FILES (X86)\MICROSOFT VISUAL STUDIO 14.0\VC\INCLUDE\CWCHAR
C:\PROGRAM FILES (X86)\WINDOWS KITS\10\INCLUDE\10.0.10240.0\UCRT\WCHAR.H
C:\PROGRAM FILES (X86)\WINDOWS KITS\10\INCLUDE\10.0.10240.0\UCRT\CORECRT_WCONIO.H
C:\PROGRAM FILES (X86)\WINDOWS KITS\10\INCLUDE\10.0.10240.0\UCRT\CORECRT_STDIO_CONFIG.H
C:\PROGRAM FILES (X86)\WINDOWS KITS\10\INCLUDE\10.0.10240.0\UCRT\CORECRT_WCTYPE.H
C:\PROGRAM FILES (X86)\WINDOWS KITS\10\INCLUDE\10.0.10240.0\UCRT\CORECRT_WDIRECT.H
C:\PROGRAM FILES (X86)\WINDOWS KITS\10\INCLUDE\10.0.10240.0\UCRT\CORECRT_WIO.H
C:\PROGRAM FILES (X86)\WINDOWS KITS\10\INCLUDE\10.0.10240.0\UCRT\CORECRT_SHARE.H
C:\PROGRAM FILES (X86)\WINDOWS KITS\10\INCLUDE\10.0.10240.0\UCRT\CORECRT_WPROCESS.H
C:\PROGRAM FILES (X86)\WINDOWS KITS\10\INCLUDE\10.0.10240.0\UCRT\CORECRT_WSTDIO.H
C:\PROGRAM FILES (X86)\WINDOWS KITS\10\INCLUDE\10.0.10240.0\UCRT\CORECRT_WTIME.H
C:\PROGRAM FILES (X86)\WINDOWS KITS\10\INCLUDE\10.0.10240.0\UCRT\SYS\STAT.H
C:\PROGRAM FILES (X86)\WINDOWS KITS\10\INCLUDE\10.0.10240.0\UCRT\SYS\TYPES.H
C:\PROGRAM FILES (X86)\MICROSOFT VISUAL STUDIO 14.0\VC\INCLUDE\XSTDDEF
C:\PROGRAM FILES (X86)\MICROSOFT VISUAL STUDIO 14.0\VC\INCLUDE\CSTDDEF
C:\PROGRAM FILES (X86)\MICROSOFT VISUAL STUDIO 14.0\VC\INCLUDE\INITIALIZER_LIST
C:\PROGRAM FILES (X86)\MICROSOFT VISUAL STUDIO 14.0\VC\INCLUDE\NEW
C:\PROGRAM FILES (X86)\MICROSOFT VISUAL STUDIO 14.0\VC\INCLUDE\EXCEPTION
C:\PROGRAM FILES (X86)\MICROSOFT VISUAL STUDIO 14.0\VC\INCLUDE\TYPE_TRAITS
C:\PROGRAM FILES (X86)\WINDOWS KITS\10\INCLUDE\10.0.10240.0\UCRT\MALLOC.H
C:\PROGRAM FILES (X86)\MICROSOFT VISUAL STUDIO 14.0\VC\INCLUDE\VCRUNTIME_EXCEPTION.H
C:\PROGRAM FILES (X86)\MICROSOFT VISUAL STUDIO 14.0\VC\INCLUDE\EH.H
C:\PROGRAM FILES (X86)\WINDOWS KITS\10\INCLUDE\10.0.10240.0\UCRT\CORECRT_TERMINATE.H
C:\PROGRAM FILES (X86)\MICROSOFT VISUAL STUDIO 14.0\VC\INCLUDE\VCRUNTIME_NEW.H
C:\PROGRAM FILES (X86)\MICROSOFT VISUAL STUDIO 14.0\VC\INCLUDE\XUTILITY
C:\PROGRAM FILES (X86)\MICROSOFT VISUAL STUDIO 14.0\VC\INCLUDE\UTILITY
C:\PROGRAM FILES (X86)\MICROSOFT VISUAL STUDIO 14.0\VC\INCLUDE\IOSFWD
C:\PROGRAM FILES (X86)\MICROSOFT VISUAL STUDIO 14.0\VC\INCLUDE\CSTDIO
C:\PROGRAM FILES (X86)\WINDOWS KITS\10\INCLUDE\10.0.10240.0\UCRT\STDIO.H
C:\PROGRAM FILES (X86)\MICROSOFT VISUAL STUDIO 14.0\VC\INCLUDE\CSTRING
C:\PROGRAM FILES (X86)\WINDOWS KITS\10\INCLUDE\10.0.10240.0\UCRT\CRTDBG.H
C:\PROGRAM FILES (X86)\MICROSOFT VISUAL STUDIO 14.0\VC\INCLUDE\VCRUNTIME_NEW_DEBUG.H
C:\PROGRAM FILES (X86)\MICROSOFT VISUAL STUDIO 14.0\VC\INCLUDE\XATOMIC0.H
C:\PROGRAM FILES (X86)\MICROSOFT VISUAL STUDIO 14.0\VC\INCLUDE\INTRIN.H
C:\PROGRAM FILES (X86)\MICROSOFT VISUAL STUDIO 14.0\VC\INCLUDE\SETJMP.H
C:\PROGRAM FILES (X86)\MICROSOFT VISUAL STUDIO 14.0\VC\INCLUDE\IMMINTRIN.H
C:\PROGRAM FILES (X86)\MICROSOFT VISUAL STUDIO 14.0\VC\INCLUDE\WMMINTRIN.H
C:\PROGRAM FILES (X86)\MICROSOFT VISUAL STUDIO 14.0\VC\INCLUDE\NMMINTRIN.H
C:\PROGRAM FILES (X86)\MICROSOFT VISUAL STUDIO 14.0\VC\INCLUDE\SMMINTRIN.H
C:\PROGRAM FILES (X86)\MICROSOFT VISUAL STUDIO 14.0\VC\INCLUDE\TMMINTRIN.H
C:\PROGRAM FILES (X86)\MICROSOFT VISUAL STUDIO 14.0\VC\INCLUDE\PMMINTRIN.H
C:\PROGRAM FILES (X86)\MICROSOFT VISUAL STUDIO 14.0\VC\INCLUDE\EMMINTRIN.H
C:\PROGRAM FILES (X86)\MICROSOFT VISUAL STUDIO 14.0\VC\INCLUDE\XMMINTRIN.H
C:\PROGRAM FILES (X86)\MICROSOFT VISUAL STUDIO 14.0\VC\INCLUDE\MMINTRIN.H
C:\PROGRAM FILES (X86)\MICROSOFT VISUAL STUDIO 14.0\VC\INCLUDE\AMMINTRIN.H
C:\PROGRAM FILES (X86)\MICROSOFT VISUAL STUDIO 14.0\VC\INCLUDE\MM3DNOW.H
C:\USERS\DANNY\DESKTOP\BOX2D-MASTER\BOX2D\BOX2D\COLLISION\B2DISTANCE.H
C:\USERS\DANNY\DESKTOP\BOX2D-MASTER\BOX2D\BOX2D\COLLISION\B2TIMEOFIMPACT.H
C:\USERS\DANNY\DESKTOP\BOX2D-MASTER\BOX2D\BOX2D\DYNAMICS\B2BODY.H
C:\PROGRAM FILES (X86)\MICROSOFT VISUAL STUDIO 14.0\VC\INCLUDE\MEMORY
C:\PROGRAM FILES (X86)\MICROSOFT VISUAL STUDIO 14.0\VC\INCLUDE\TYPEINFO
C:\PROGRAM FILES (X86)\MICROSOFT VISUAL STUDIO 14.0\VC\INCLUDE\VCRUNTIME_TYPEINFO.H
C:\USERS\DANNY\DESKTOP\BOX2D-MASTER\BOX2D\BOX2D\DYNAMICS\B2FIXTURE.H
C:\USERS\DANNY\DESKTOP\BOX2D-MASTER\BOX2D\BOX2D\DYNAMICS\B2WORLDCALLBACKS.H
C:\USERS\DANNY\DESKTOP\BOX2D-MASTER\BOX2D\BOX2D\DYNAMICS\B2TIMESTEP.H
C:\USERS\DANNY\DESKTOP\BOX2D-MASTER\BOX2D\BOX2D\DYNAMICS\B2WORLD.H
C:\USERS\DANNY\DESKTOP\BOX2D-MASTER\BOX2D\BOX2D\COMMON\B2STACKALLOCATOR.H
C:\USERS\DANNY\DESKTOP\BOX2D-MASTER\BOX2D\BOX2D\DYNAMICS\B2CONTACTMANAGER.H
C:\USERS\DANNY\DESKTOP\BOX2D-MASTER\BOX2D\BOX2D\DYNAMICS\CONTACTS\B2CONTACT.H
C:\USERS\DANNY\DESKTOP\BOX2D-MASTER\BOX2D\BOX2D\DYNAMICS\JOINTS\B2DISTANCEJOINT.H
C:\USERS\DANNY\DESKTOP\BOX2D-MASTER\BOX2D\BOX2D\DYNAMICS\JOINTS\B2JOINT.H
C:\USERS\DANNY\DESKTOP\BOX2D-MASTER\BOX2D\BOX2D\DYNAMICS\JOINTS\B2FRICTIONJOINT.H
C:\USERS\DANNY\DESKTOP\BOX2D-MASTER\BOX2D\BOX2D\DYNAMICS\JOINTS\B2GEARJOINT.H
C:\USERS\DANNY\DESKTOP\BOX2D-MASTER\BOX2D\BOX2D\DYNAMICS\JOINTS\B2MOTORJOINT.H
C:\USERS\DANNY\DESKTOP\BOX2D-MASTER\BOX2D\BOX2D\DYNAMICS\JOINTS\B2MOUSEJOINT.H
C:\USERS\DANNY\DESKTOP\BOX2D-MASTER\BOX2D\BOX2D\DYNAMICS\JOINTS\B2PRISMATICJOINT.H
C:\USERS\DANNY\DESKTOP\BOX2D-MASTER\BOX2D\BOX2D\DYNAMICS\JOINTS\B2PULLEYJOINT.H
C:\USERS\DANNY\DESKTOP\BOX2D-MASTER\BOX2D\BOX2D\DYNAMICS\JOINTS\B2REVOLUTEJOINT.H
C:\USERS\DANNY\DESKTOP\BOX2D-MASTER\BOX2D\BOX2D\DYNAMICS\JOINTS\B2ROPEJOINT.H
C:\USERS\DANNY\DESKTOP\BOX2D-MASTER\BOX2D\BOX2D\DYNAMICS\JOINTS\B2WELDJOINT.H
C:\USERS\DANNY\DESKTOP\BOX2D-MASTER\BOX2D\BOX2D\DYNAMICS\JOINTS\B2WHEELJOINT.H
C:\USERS\DANNY\DESKTOP\BOX2D-MASTER\BOX2D\TESTBED\FRAMEWORK\DEBUGDRAW.H
C:\USERS\DANNY\DESKTOP\BOX2D-MASTER\BOX2D\GLEW\GLEW.H
C:\PROGRAM FILES (X86)\WINDOWS KITS\8.1\INCLUDE\UM\GL\GLU.H
C:\PROGRAM FILES (X86)\WINDOWS KITS\8.1\INCLUDE\SHARED\WINAPIFAMILY.H
C:\PROGRAM FILES (X86)\WINDOWS KITS\8.1\INCLUDE\UM\GL\GL.H
C:\USERS\DANNY\DESKTOP\BOX2D-MASTER\BOX2D\GLFW\GLFW3.H
^C:\USERS\DANNY\DESKTOP\BOX2D-MASTER\BOX2D\TESTBED\FRAMEWORK\RENDERGL3.CPP
C:\PROGRAM FILES (X86)\WINDOWS KITS\10\INCLUDE\10.0.10240.0\UCRT\MATH.H
C:\PROGRAM FILES (X86)\WINDOWS KITS\10\INCLUDE\10.0.10240.0\UCRT\CORECRT.H
C:\PROGRAM FILES (X86)\MICROSOFT VISUAL STUDIO 14.0\VC\INCLUDE\VCRUNTIME.H
C:\PROGRAM FILES (X86)\MICROSOFT VISUAL STUDIO 14.0\VC\INCLUDE\SAL.H
C:\PROGRAM FILES (X86)\MICROSOFT VISUAL STUDIO 14.0\VC\INCLUDE\CONCURRENCYSAL.H
C:\PROGRAM FILES (X86)\MICROSOFT VISUAL STUDIO 14.0\VC\INCLUDE\VADEFS.H
C:\PROGRAM FILES (X86)\WINDOWS KITS\10\INCLUDE\10.0.10240.0\UCRT\STDIO.H
C:\PROGRAM FILES (X86)\WINDOWS KITS\10\INCLUDE\10.0.10240.0\UCRT\CORECRT_WSTDIO.H
C:\PROGRAM FILES (X86)\WINDOWS KITS\10\INCLUDE\10.0.10240.0\UCRT\CORECRT_STDIO_CONFIG.H
C:\USERS\DANNY\DESKTOP\BOX2D-MASTER\BOX2D\GLEW\GLEW.H
C:\PROGRAM FILES (X86)\WINDOWS KITS\8.1\INCLUDE\UM\GL\GLU.H
C:\PROGRAM FILES (X86)\WINDOWS KITS\8.1\INCLUDE\SHARED\WINAPIFAMILY.H
C:\PROGRAM FILES (X86)\WINDOWS KITS\8.1\INCLUDE\UM\GL\GL.H
C:\USERS\DANNY\DESKTOP\BOX2D-MASTER\BOX2D\TESTBED\FRAMEWORK\RENDERGL3.H
C:\USERS\DANNY\DESKTOP\BOX2D-MASTER\BOX2D\BOX2D\COMMON\B2MATH.H
C:\USERS\DANNY\DESKTOP\BOX2D-MASTER\BOX2D\BOX2D\COMMON\B2SETTINGS.H
C:\PROGRAM FILES (X86)\WINDOWS KITS\10\INCLUDE\10.0.10240.0\UCRT\STDDEF.H
C:\PROGRAM FILES (X86)\WINDOWS KITS\10\INCLUDE\10.0.10240.0\UCRT\ASSERT.H
C:\PROGRAM FILES (X86)\WINDOWS KITS\10\INCLUDE\10.0.10240.0\UCRT\FLOAT.H
C:\USERS\DANNY\DESKTOP\BOX2D-MASTER\BOX2D\TESTBED\FRAMEWORK\STB_TRUETYPE.H
C:\PROGRAM FILES (X86)\WINDOWS KITS\10\INCLUDE\10.0.10240.0\UCRT\STDLIB.H
C:\PROGRAM FILES (X86)\WINDOWS KITS\10\INCLUDE\10.0.10240.0\UCRT\CORECRT_MALLOC.H
C:\PROGRAM FILES (X86)\WINDOWS KITS\10\INCLUDE\10.0.10240.0\UCRT\CORECRT_SEARCH.H
C:\PROGRAM FILES (X86)\WINDOWS KITS\10\INCLUDE\10.0.10240.0\UCRT\CORECRT_WSTDLIB.H
C:\PROGRAM FILES (X86)\MICROSOFT VISUAL STUDIO 14.0\VC\INCLUDE\LIMITS.H
C:\PROGRAM FILES (X86)\WINDOWS KITS\10\INCLUDE\10.0.10240.0\UCRT\STRING.H
C:\PROGRAM FILES (X86)\WINDOWS KITS\10\INCLUDE\10.0.10240.0\UCRT\CORECRT_MEMORY.H
C:\PROGRAM FILES (X86)\WINDOWS KITS\10\INCLUDE\10.0.10240.0\UCRT\CORECRT_MEMCPY_S.H
C:\PROGRAM FILES (X86)\WINDOWS KITS\10\INCLUDE\10.0.10240.0\UCRT\ERRNO.H
C:\PROGRAM FILES (X86)\MICROSOFT VISUAL STUDIO 14.0\VC\INCLUDE\VCRUNTIME_STRING.H
C:\PROGRAM FILES (X86)\WINDOWS KITS\10\INCLUDE\10.0.10240.0\UCRT\CORECRT_WSTRING.H
C:\PROGRAM FILES (X86)\WINDOWS KITS\10\INCLUDE\10.0.10240.0\UCRT\MEMORY.H
^C:\USERS\DANNY\DESKTOP\BOX2D-MASTER\BOX2D\TESTBED\FRAMEWORK\MAIN.CPP
C:\USERS\DANNY\DESKTOP\BOX2D-MASTER\BOX2D\TESTBED\FRAMEWORK\IMGUI.H
C:\USERS\DANNY\DESKTOP\BOX2D-MASTER\BOX2D\TESTBED\FRAMEWORK\RENDERGL3.H
C:\USERS\DANNY\DESKTOP\BOX2D-MASTER\BOX2D\BOX2D\COMMON\B2MATH.H
C:\USERS\DANNY\DESKTOP\BOX2D-MASTER\BOX2D\BOX2D\COMMON\B2SETTINGS.H
C:\PROGRAM FILES (X86)\WINDOWS KITS\10\INCLUDE\10.0.10240.0\UCRT\STDDEF.H
C:\PROGRAM FILES (X86)\WINDOWS KITS\10\INCLUDE\10.0.10240.0\UCRT\CORECRT.H
C:\PROGRAM FILES (X86)\MICROSOFT VISUAL STUDIO 14.0\VC\INCLUDE\VCRUNTIME.H
C:\PROGRAM FILES (X86)\MICROSOFT VISUAL STUDIO 14.0\VC\INCLUDE\SAL.H
C:\PROGRAM FILES (X86)\MICROSOFT VISUAL STUDIO 14.0\VC\INCLUDE\CONCURRENCYSAL.H
C:\PROGRAM FILES (X86)\MICROSOFT VISUAL STUDIO 14.0\VC\INCLUDE\VADEFS.H
C:\PROGRAM FILES (X86)\WINDOWS KITS\10\INCLUDE\10.0.10240.0\UCRT\ASSERT.H
C:\PROGRAM FILES (X86)\WINDOWS KITS\10\INCLUDE\10.0.10240.0\UCRT\FLOAT.H
C:\PROGRAM FILES (X86)\WINDOWS KITS\10\INCLUDE\10.0.10240.0\UCRT\MATH.H
C:\USERS\DANNY\DESKTOP\BOX2D-MASTER\BOX2D\TESTBED\FRAMEWORK\DEBUGDRAW.H
C:\USERS\DANNY\DESKTOP\BOX2D-MASTER\BOX2D\BOX2D\BOX2D.H
C:\USERS\DANNY\DESKTOP\BOX2D-MASTER\BOX2D\BOX2D\COMMON\B2DRAW.H
C:\USERS\DANNY\DESKTOP\BOX2D-MASTER\BOX2D\BOX2D\COMMON\B2TIMER.H
C:\USERS\DANNY\DESKTOP\BOX2D-MASTER\BOX2D\BOX2D\COLLISION\SHAPES\B2CIRCLESHAPE.H
C:\USERS\DANNY\DESKTOP\BOX2D-MASTER\BOX2D\BOX2D\COLLISION\SHAPES\B2SHAPE.H
C:\USERS\DANNY\DESKTOP\BOX2D-MASTER\BOX2D\BOX2D\COMMON\B2BLOCKALLOCATOR.H
C:\USERS\DANNY\DESKTOP\BOX2D-MASTER\BOX2D\BOX2D\COLLISION\B2COLLISION.H
C:\PROGRAM FILES (X86)\MICROSOFT VISUAL STUDIO 14.0\VC\INCLUDE\LIMITS.H
C:\USERS\DANNY\DESKTOP\BOX2D-MASTER\BOX2D\BOX2D\COLLISION\SHAPES\B2EDGESHAPE.H
C:\USERS\DANNY\DESKTOP\BOX2D-MASTER\BOX2D\BOX2D\COLLISION\SHAPES\B2CHAINSHAPE.H
C:\USERS\DANNY\DESKTOP\BOX2D-MASTER\BOX2D\BOX2D\COLLISION\SHAPES\B2POLYGONSHAPE.H
C:\USERS\DANNY\DESKTOP\BOX2D-MASTER\BOX2D\BOX2D\COLLISION\B2BROADPHASE.H
C:\USERS\DANNY\DESKTOP\BOX2D-MASTER\BOX2D\BOX2D\COLLISION\B2DYNAMICTREE.H
C:\USERS\DANNY\DESKTOP\BOX2D-MASTER\BOX2D\BOX2D\COMMON\B2GROWABLESTACK.H
C:\PROGRAM FILES (X86)\WINDOWS KITS\10\INCLUDE\10.0.10240.0\UCRT\STRING.H
C:\PROGRAM FILES (X86)\WINDOWS KITS\10\INCLUDE\10.0.10240.0\UCRT\CORECRT_MEMORY.H
C:\PROGRAM FILES (X86)\WINDOWS KITS\10\INCLUDE\10.0.10240.0\UCRT\CORECRT_MEMCPY_S.H
C:\PROGRAM FILES (X86)\WINDOWS KITS\10\INCLUDE\10.0.10240.0\UCRT\ERRNO.H
C:\PROGRAM FILES (X86)\MICROSOFT VISUAL STUDIO 14.0\VC\INCLUDE\VCRUNTIME_STRING.H
C:\PROGRAM FILES (X86)\WINDOWS KITS\10\INCLUDE\10.0.10240.0\UCRT\CORECRT_WSTRING.H
C:\PROGRAM FILES (X86)\MICROSOFT VISUAL STUDIO 14.0\VC\INCLUDE\ALGORITHM
C:\PROGRAM FILES (X86)\MICROSOFT VISUAL STUDIO 14.0\VC\INCLUDE\XMEMORY
C:\PROGRAM FILES (X86)\MICROSOFT VISUAL STUDIO 14.0\VC\INCLUDE\XMEMORY0
C:\PROGRAM FILES (X86)\MICROSOFT VISUAL STUDIO 14.0\VC\INCLUDE\CSTDINT
C:\PROGRAM FILES (X86)\MICROSOFT VISUAL STUDIO 14.0\VC\INCLUDE\YVALS.H
C:\PROGRAM FILES (X86)\MICROSOFT VISUAL STUDIO 14.0\VC\INCLUDE\XKEYCHECK.H
C:\PROGRAM FILES (X86)\MICROSOFT VISUAL STUDIO 14.0\VC\INCLUDE\CRTDEFS.H
C:\PROGRAM FILES (X86)\MICROSOFT VISUAL STUDIO 14.0\VC\INCLUDE\USE_ANSI.H
C:\PROGRAM FILES (X86)\MICROSOFT VISUAL STUDIO 14.0\VC\INCLUDE\STDINT.H
C:\PROGRAM FILES (X86)\MICROSOFT VISUAL STUDIO 14.0\VC\INCLUDE\CSTDLIB
C:\PROGRAM FILES (X86)\WINDOWS KITS\10\INCLUDE\10.0.10240.0\UCRT\STDLIB.H
C:\PROGRAM FILES (X86)\WINDOWS KITS\10\INCLUDE\10.0.10240.0\UCRT\CORECRT_MALLOC.H
C:\PROGRAM FILES (X86)\WINDOWS KITS\10\INCLUDE\10.0.10240.0\UCRT\CORECRT_SEARCH.H
C:\PROGRAM FILES (X86)\WINDOWS KITS\10\INCLUDE\10.0.10240.0\UCRT\CORECRT_WSTDLIB.H
C:\PROGRAM FILES (X86)\MICROSOFT VISUAL STUDIO 14.0\VC\INCLUDE\LIMITS
C:\PROGRAM FILES (X86)\MICROSOFT VISUAL STUDIO 14.0\VC\INCLUDE\YMATH.H
C:\PROGRAM FILES (X86)\MICROSOFT VISUAL STUDIO 14.0\VC\INCLUDE\CFLOAT
C:\PROGRAM FILES (X86)\MICROSOFT VISUAL STUDIO 14.0\VC\INCLUDE\CLIMITS
C:\PROGRAM FILES (X86)\MICROSOFT VISUAL STUDIO 14.0\VC\INCLUDE\CMATH
C:\PROGRAM FILES (X86)\MICROSOFT VISUAL STUDIO 14.0\VC\INCLUDE\XTGMATH.H
C:\PROGRAM FILES (X86)\MICROSOFT VISUAL STUDIO 14.0\VC\INCLUDE\XTR1COMMON
C:\PROGRAM FILES (X86)\MICROSOFT VISUAL STUDIO 14.0\VC\INCLUDE\CWCHAR
C:\PROGRAM FILES (X86)\WINDOWS KITS\10\INCLUDE\10.0.10240.0\UCRT\WCHAR.H
C:\PROGRAM FILES (X86)\WINDOWS KITS\10\INCLUDE\10.0.10240.0\UCRT\CORECRT_WCONIO.H
C:\PROGRAM FILES (X86)\WINDOWS KITS\10\INCLUDE\10.0.10240.0\UCRT\CORECRT_STDIO_CONFIG.H
C:\PROGRAM FILES (X86)\WINDOWS KITS\10\INCLUDE\10.0.10240.0\UCRT\CORECRT_WCTYPE.H
C:\PROGRAM FILES (X86)\WINDOWS KITS\10\INCLUDE\10.0.10240.0\UCRT\CORECRT_WDIRECT.H
C:\PROGRAM FILES (X86)\WINDOWS KITS\10\INCLUDE\10.0.10240.0\UCRT\CORECRT_WIO.H
C:\PROGRAM FILES (X86)\WINDOWS KITS\10\INCLUDE\10.0.10240.0\UCRT\CORECRT_SHARE.H
C:\PROGRAM FILES (X86)\WINDOWS KITS\10\INCLUDE\10.0.10240.0\UCRT\CORECRT_WPROCESS.H
C:\PROGRAM FILES (X86)\WINDOWS KITS\10\INCLUDE\10.0.10240.0\UCRT\CORECRT_WSTDIO.H
C:\PROGRAM FILES (X86)\WINDOWS KITS\10\INCLUDE\10.0.10240.0\UCRT\CORECRT_WTIME.H
C:\PROGRAM FILES (X86)\WINDOWS KITS\10\INCLUDE\10.0.10240.0\UCRT\SYS\STAT.H
C:\PROGRAM FILES (X86)\WINDOWS KITS\10\INCLUDE\10.0.10240.0\UCRT\SYS\TYPES.H
C:\PROGRAM FILES (X86)\MICROSOFT VISUAL STUDIO 14.0\VC\INCLUDE\XSTDDEF
C:\PROGRAM FILES (X86)\MICROSOFT VISUAL STUDIO 14.0\VC\INCLUDE\CSTDDEF
C:\PROGRAM FILES (X86)\MICROSOFT VISUAL STUDIO 14.0\VC\INCLUDE\INITIALIZER_LIST
C:\PROGRAM FILES (X86)\MICROSOFT VISUAL STUDIO 14.0\VC\INCLUDE\NEW
C:\PROGRAM FILES (X86)\MICROSOFT VISUAL STUDIO 14.0\VC\INCLUDE\EXCEPTION
C:\PROGRAM FILES (X86)\MICROSOFT VISUAL STUDIO 14.0\VC\INCLUDE\TYPE_TRAITS
C:\PROGRAM FILES (X86)\WINDOWS KITS\10\INCLUDE\10.0.10240.0\UCRT\MALLOC.H
C:\PROGRAM FILES (X86)\MICROSOFT VISUAL STUDIO 14.0\VC\INCLUDE\VCRUNTIME_EXCEPTION.H
C:\PROGRAM FILES (X86)\MICROSOFT VISUAL STUDIO 14.0\VC\INCLUDE\EH.H
C:\PROGRAM FILES (X86)\WINDOWS KITS\10\INCLUDE\10.0.10240.0\UCRT\CORECRT_TERMINATE.H
C:\PROGRAM FILES (X86)\MICROSOFT VISUAL STUDIO 14.0\VC\INCLUDE\VCRUNTIME_NEW.H
C:\PROGRAM FILES (X86)\MICROSOFT VISUAL STUDIO 14.0\VC\INCLUDE\XUTILITY
C:\PROGRAM FILES (X86)\MICROSOFT VISUAL STUDIO 14.0\VC\INCLUDE\UTILITY
C:\PROGRAM FILES (X86)\MICROSOFT VISUAL STUDIO 14.0\VC\INCLUDE\IOSFWD
C:\PROGRAM FILES (X86)\MICROSOFT VISUAL STUDIO 14.0\VC\INCLUDE\CSTDIO
C:\PROGRAM FILES (X86)\WINDOWS KITS\10\INCLUDE\10.0.10240.0\UCRT\STDIO.H
C:\PROGRAM FILES (X86)\MICROSOFT VISUAL STUDIO 14.0\VC\INCLUDE\CSTRING
C:\PROGRAM FILES (X86)\WINDOWS KITS\10\INCLUDE\10.0.10240.0\UCRT\CRTDBG.H
C:\PROGRAM FILES (X86)\MICROSOFT VISUAL STUDIO 14.0\VC\INCLUDE\VCRUNTIME_NEW_DEBUG.H
C:\PROGRAM FILES (X86)\MICROSOFT VISUAL STUDIO 14.0\VC\INCLUDE\XATOMIC0.H
C:\PROGRAM FILES (X86)\MICROSOFT VISUAL STUDIO 14.0\VC\INCLUDE\INTRIN.H
C:\PROGRAM FILES (X86)\MICROSOFT VISUAL STUDIO 14.0\VC\INCLUDE\SETJMP.H
C:\PROGRAM FILES (X86)\MICROSOFT VISUAL STUDIO 14.0\VC\INCLUDE\IMMINTRIN.H
C:\PROGRAM FILES (X86)\MICROSOFT VISUAL STUDIO 14.0\VC\INCLUDE\WMMINTRIN.H
C:\PROGRAM FILES (X86)\MICROSOFT VISUAL STUDIO 14.0\VC\INCLUDE\NMMINTRIN.H
C:\PROGRAM FILES (X86)\MICROSOFT VISUAL STUDIO 14.0\VC\INCLUDE\SMMINTRIN.H
C:\PROGRAM FILES (X86)\MICROSOFT VISUAL STUDIO 14.0\VC\INCLUDE\TMMINTRIN.H
C:\PROGRAM FILES (X86)\MICROSOFT VISUAL STUDIO 14.0\VC\INCLUDE\PMMINTRIN.H
C:\PROGRAM FILES (X86)\MICROSOFT VISUAL STUDIO 14.0\VC\INCLUDE\EMMINTRIN.H
C:\PROGRAM FILES (X86)\MICROSOFT VISUAL STUDIO 14.0\VC\INCLUDE\XMMINTRIN.H
C:\PROGRAM FILES (X86)\MICROSOFT VISUAL STUDIO 14.0\VC\INCLUDE\MMINTRIN.H
C:\PROGRAM FILES (X86)\MICROSOFT VISUAL STUDIO 14.0\VC\INCLUDE\AMMINTRIN.H
C:\PROGRAM FILES (X86)\MICROSOFT VISUAL STUDIO 14.0\VC\INCLUDE\MM3DNOW.H
C:\USERS\DANNY\DESKTOP\BOX2D-MASTER\BOX2D\BOX2D\COLLISION\B2DISTANCE.H
C:\USERS\DANNY\DESKTOP\BOX2D-MASTER\BOX2D\BOX2D\COLLISION\B2TIMEOFIMPACT.H
C:\USERS\DANNY\DESKTOP\BOX2D-MASTER\BOX2D\BOX2D\DYNAMICS\B2BODY.H
C:\PROGRAM FILES (X86)\MICROSOFT VISUAL STUDIO 14.0\VC\INCLUDE\MEMORY
C:\PROGRAM FILES (X86)\MICROSOFT VISUAL STUDIO 14.0\VC\INCLUDE\TYPEINFO
C:\PROGRAM FILES (X86)\MICROSOFT VISUAL STUDIO 14.0\VC\INCLUDE\VCRUNTIME_TYPEINFO.H
C:\USERS\DANNY\DESKTOP\BOX2D-MASTER\BOX2D\BOX2D\DYNAMICS\B2FIXTURE.H
C:\USERS\DANNY\DESKTOP\BOX2D-MASTER\BOX2D\BOX2D\DYNAMICS\B2WORLDCALLBACKS.H
C:\USERS\DANNY\DESKTOP\BOX2D-MASTER\BOX2D\BOX2D\DYNAMICS\B2TIMESTEP.H
C:\USERS\DANNY\DESKTOP\BOX2D-MASTER\BOX2D\BOX2D\DYNAMICS\B2WORLD.H
C:\USERS\DANNY\DESKTOP\BOX2D-MASTER\BOX2D\BOX2D\COMMON\B2STACKALLOCATOR.H
C:\USERS\DANNY\DESKTOP\BOX2D-MASTER\BOX2D\BOX2D\DYNAMICS\B2CONTACTMANAGER.H
C:\USERS\DANNY\DESKTOP\BOX2D-MASTER\BOX2D\BOX2D\DYNAMICS\CONTACTS\B2CONTACT.H
C:\USERS\DANNY\DESKTOP\BOX2D-MASTER\BOX2D\BOX2D\DYNAMICS\JOINTS\B2DISTANCEJOINT.H
C:\USERS\DANNY\DESKTOP\BOX2D-MASTER\BOX2D\BOX2D\DYNAMICS\JOINTS\B2JOINT.H
C:\USERS\DANNY\DESKTOP\BOX2D-MASTER\BOX2D\BOX2D\DYNAMICS\JOINTS\B2FRICTIONJOINT.H
C:\USERS\DANNY\DESKTOP\BOX2D-MASTER\BOX2D\BOX2D\DYNAMICS\JOINTS\B2GEARJOINT.H
C:\USERS\DANNY\DESKTOP\BOX2D-MASTER\BOX2D\BOX2D\DYNAMICS\JOINTS\B2MOTORJOINT.H
C:\USERS\DANNY\DESKTOP\BOX2D-MASTER\BOX2D\BOX2D\DYNAMICS\JOINTS\B2MOUSEJOINT.H
C:\USERS\DANNY\DESKTOP\BOX2D-MASTER\BOX2D\BOX2D\DYNAMICS\JOINTS\B2PRISMATICJOINT.H
C:\USERS\DANNY\DESKTOP\BOX2D-MASTER\BOX2D\BOX2D\DYNAMICS\JOINTS\B2PULLEYJOINT.H
C:\USERS\DANNY\DESKTOP\BOX2D-MASTER\BOX2D\BOX2D\DYNAMICS\JOINTS\B2REVOLUTEJOINT.H
C:\USERS\DANNY\DESKTOP\BOX2D-MASTER\BOX2D\BOX2D\DYNAMICS\JOINTS\B2ROPEJOINT.H
C:\USERS\DANNY\DESKTOP\BOX2D-MASTER\BOX2D\BOX2D\DYNAMICS\JOINTS\B2WELDJOINT.H
C:\USERS\DANNY\DESKTOP\BOX2D-MASTER\BOX2D\BOX2D\DYNAMICS\JOINTS\B2WHEELJOINT.H
C:\USERS\DANNY\DESKTOP\BOX2D-MASTER\BOX2D\TESTBED\FRAMEWORK\TEST.H
C:\USERS\DANNY\DESKTOP\BOX2D-MASTER\BOX2D\GLEW\GLEW.H
C:\PROGRAM FILES (X86)\WINDOWS KITS\8.1\INCLUDE\UM\GL\GLU.H
C:\PROGRAM FILES (X86)\WINDOWS KITS\8.1\INCLUDE\SHARED\WINAPIFAMILY.H
C:\PROGRAM FILES (X86)\WINDOWS KITS\8.1\INCLUDE\UM\GL\GL.H
C:\USERS\DANNY\DESKTOP\BOX2D-MASTER\BOX2D\GLFW\GLFW3.H
^C:\USERS\DANNY\DESKTOP\BOX2D-MASTER\BOX2D\TESTBED\FRAMEWORK\IMGUI.CPP
C:\PROGRAM FILES (X86)\WINDOWS KITS\10\INCLUDE\10.0.10240.0\UCRT\STDIO.H
C:\PROGRAM FILES (X86)\WINDOWS KITS\10\INCLUDE\10.0.10240.0\UCRT\CORECRT.H
C:\PROGRAM FILES (X86)\MICROSOFT VISUAL STUDIO 14.0\VC\INCLUDE\VCRUNTIME.H
C:\PROGRAM FILES (X86)\MICROSOFT VISUAL STUDIO 14.0\VC\INCLUDE\SAL.H
C:\PROGRAM FILES (X86)\MICROSOFT VISUAL STUDIO 14.0\VC\INCLUDE\CONCURRENCYSAL.H
C:\PROGRAM FILES (X86)\MICROSOFT VISUAL STUDIO 14.0\VC\INCLUDE\VADEFS.H
C:\PROGRAM FILES (X86)\WINDOWS KITS\10\INCLUDE\10.0.10240.0\UCRT\CORECRT_WSTDIO.H
C:\PROGRAM FILES (X86)\WINDOWS KITS\10\INCLUDE\10.0.10240.0\UCRT\CORECRT_STDIO_CONFIG.H
C:\PROGRAM FILES (X86)\WINDOWS KITS\10\INCLUDE\10.0.10240.0\UCRT\STRING.H
C:\PROGRAM FILES (X86)\WINDOWS KITS\10\INCLUDE\10.0.10240.0\UCRT\CORECRT_MEMORY.H
C:\PROGRAM FILES (X86)\WINDOWS KITS\10\INCLUDE\10.0.10240.0\UCRT\CORECRT_MEMCPY_S.H
C:\PROGRAM FILES (X86)\WINDOWS KITS\10\INCLUDE\10.0.10240.0\UCRT\ERRNO.H
C:\PROGRAM FILES (X86)\MICROSOFT VISUAL STUDIO 14.0\VC\INCLUDE\VCRUNTIME_STRING.H
C:\PROGRAM FILES (X86)\WINDOWS KITS\10\INCLUDE\10.0.10240.0\UCRT\CORECRT_WSTRING.H
C:\PROGRAM FILES (X86)\WINDOWS KITS\10\INCLUDE\10.0.10240.0\UCRT\MATH.H
C:\USERS\DANNY\DESKTOP\BOX2D-MASTER\BOX2D\TESTBED\FRAMEWORK\IMGUI.H
C:\USERS\DANNY\DESKTOP\BOX2D-MASTER\BOX2D\TESTBED\FRAMEWORK\RENDERGL3.H
C:\USERS\DANNY\DESKTOP\BOX2D-MASTER\BOX2D\BOX2D\COMMON\B2MATH.H
C:\USERS\DANNY\DESKTOP\BOX2D-MASTER\BOX2D\BOX2D\COMMON\B2SETTINGS.H
C:\PROGRAM FILES (X86)\WINDOWS KITS\10\INCLUDE\10.0.10240.0\UCRT\STDDEF.H
C:\PROGRAM FILES (X86)\WINDOWS KITS\10\INCLUDE\10.0.10240.0\UCRT\ASSERT.H
C:\PROGRAM FILES (X86)\WINDOWS KITS\10\INCLUDE\10.0.10240.0\UCRT\FLOAT.H
^C:\USERS\DANNY\DESKTOP\BOX2D-MASTER\BOX2D\TESTBED\FRAMEWORK\DEBUGDRAW.CPP
C:\USERS\DANNY\DESKTOP\BOX2D-MASTER\BOX2D\TESTBED\FRAMEWORK\DEBUGDRAW.H
C:\USERS\DANNY\DESKTOP\BOX2D-MASTER\BOX2D\BOX2D\BOX2D.H
C:\USERS\DANNY\DESKTOP\BOX2D-MASTER\BOX2D\BOX2D\COMMON\B2SETTINGS.H
C:\PROGRAM FILES (X86)\WINDOWS KITS\10\INCLUDE\10.0.10240.0\UCRT\STDDEF.H
C:\PROGRAM FILES (X86)\WINDOWS KITS\10\INCLUDE\10.0.10240.0\UCRT\CORECRT.H
C:\PROGRAM FILES (X86)\MICROSOFT VISUAL STUDIO 14.0\VC\INCLUDE\VCRUNTIME.H
C:\PROGRAM FILES (X86)\MICROSOFT VISUAL STUDIO 14.0\VC\INCLUDE\SAL.H
C:\PROGRAM FILES (X86)\MICROSOFT VISUAL STUDIO 14.0\VC\INCLUDE\CONCURRENCYSAL.H
C:\PROGRAM FILES (X86)\MICROSOFT VISUAL STUDIO 14.0\VC\INCLUDE\VADEFS.H
C:\PROGRAM FILES (X86)\WINDOWS KITS\10\INCLUDE\10.0.10240.0\UCRT\ASSERT.H
C:\PROGRAM FILES (X86)\WINDOWS KITS\10\INCLUDE\10.0.10240.0\UCRT\FLOAT.H
C:\USERS\DANNY\DESKTOP\BOX2D-MASTER\BOX2D\BOX2D\COMMON\B2DRAW.H
C:\USERS\DANNY\DESKTOP\BOX2D-MASTER\BOX2D\BOX2D\COMMON\B2MATH.H
C:\PROGRAM FILES (X86)\WINDOWS KITS\10\INCLUDE\10.0.10240.0\UCRT\MATH.H
C:\USERS\DANNY\DESKTOP\BOX2D-MASTER\BOX2D\BOX2D\COMMON\B2TIMER.H
C:\USERS\DANNY\DESKTOP\BOX2D-MASTER\BOX2D\BOX2D\COLLISION\SHAPES\B2CIRCLESHAPE.H
C:\USERS\DANNY\DESKTOP\BOX2D-MASTER\BOX2D\BOX2D\COLLISION\SHAPES\B2SHAPE.H
C:\USERS\DANNY\DESKTOP\BOX2D-MASTER\BOX2D\BOX2D\COMMON\B2BLOCKALLOCATOR.H
C:\USERS\DANNY\DESKTOP\BOX2D-MASTER\BOX2D\BOX2D\COLLISION\B2COLLISION.H
C:\PROGRAM FILES (X86)\MICROSOFT VISUAL STUDIO 14.0\VC\INCLUDE\LIMITS.H
C:\USERS\DANNY\DESKTOP\BOX2D-MASTER\BOX2D\BOX2D\COLLISION\SHAPES\B2EDGESHAPE.H
C:\USERS\DANNY\DESKTOP\BOX2D-MASTER\BOX2D\BOX2D\COLLISION\SHAPES\B2CHAINSHAPE.H
C:\USERS\DANNY\DESKTOP\BOX2D-MASTER\BOX2D\BOX2D\COLLISION\SHAPES\B2POLYGONSHAPE.H
C:\USERS\DANNY\DESKTOP\BOX2D-MASTER\BOX2D\BOX2D\COLLISION\B2BROADPHASE.H
C:\USERS\DANNY\DESKTOP\BOX2D-MASTER\BOX2D\BOX2D\COLLISION\B2DYNAMICTREE.H
C:\USERS\DANNY\DESKTOP\BOX2D-MASTER\BOX2D\BOX2D\COMMON\B2GROWABLESTACK.H
C:\PROGRAM FILES (X86)\WINDOWS KITS\10\INCLUDE\10.0.10240.0\UCRT\STRING.H
C:\PROGRAM FILES (X86)\WINDOWS KITS\10\INCLUDE\10.0.10240.0\UCRT\CORECRT_MEMORY.H
C:\PROGRAM FILES (X86)\WINDOWS KITS\10\INCLUDE\10.0.10240.0\UCRT\CORECRT_MEMCPY_S.H
C:\PROGRAM FILES (X86)\WINDOWS KITS\10\INCLUDE\10.0.10240.0\UCRT\ERRNO.H
C:\PROGRAM FILES (X86)\MICROSOFT VISUAL STUDIO 14.0\VC\INCLUDE\VCRUNTIME_STRING.H
C:\PROGRAM FILES (X86)\WINDOWS KITS\10\INCLUDE\10.0.10240.0\UCRT\CORECRT_WSTRING.H
C:\PROGRAM FILES (X86)\MICROSOFT VISUAL STUDIO 14.0\VC\INCLUDE\ALGORITHM
C:\PROGRAM FILES (X86)\MICROSOFT VISUAL STUDIO 14.0\VC\INCLUDE\XMEMORY
C:\PROGRAM FILES (X86)\MICROSOFT VISUAL STUDIO 14.0\VC\INCLUDE\XMEMORY0
C:\PROGRAM FILES (X86)\MICROSOFT VISUAL STUDIO 14.0\VC\INCLUDE\CSTDINT
C:\PROGRAM FILES (X86)\MICROSOFT VISUAL STUDIO 14.0\VC\INCLUDE\YVALS.H
C:\PROGRAM FILES (X86)\MICROSOFT VISUAL STUDIO 14.0\VC\INCLUDE\XKEYCHECK.H
C:\PROGRAM FILES (X86)\MICROSOFT VISUAL STUDIO 14.0\VC\INCLUDE\CRTDEFS.H
C:\PROGRAM FILES (X86)\MICROSOFT VISUAL STUDIO 14.0\VC\INCLUDE\USE_ANSI.H
C:\PROGRAM FILES (X86)\MICROSOFT VISUAL STUDIO 14.0\VC\INCLUDE\STDINT.H
C:\PROGRAM FILES (X86)\MICROSOFT VISUAL STUDIO 14.0\VC\INCLUDE\CSTDLIB
C:\PROGRAM FILES (X86)\WINDOWS KITS\10\INCLUDE\10.0.10240.0\UCRT\STDLIB.H
C:\PROGRAM FILES (X86)\WINDOWS KITS\10\INCLUDE\10.0.10240.0\UCRT\CORECRT_MALLOC.H
C:\PROGRAM FILES (X86)\WINDOWS KITS\10\INCLUDE\10.0.10240.0\UCRT\CORECRT_SEARCH.H
C:\PROGRAM FILES (X86)\WINDOWS KITS\10\INCLUDE\10.0.10240.0\UCRT\CORECRT_WSTDLIB.H
C:\PROGRAM FILES (X86)\MICROSOFT VISUAL STUDIO 14.0\VC\INCLUDE\LIMITS
C:\PROGRAM FILES (X86)\MICROSOFT VISUAL STUDIO 14.0\VC\INCLUDE\YMATH.H
C:\PROGRAM FILES (X86)\MICROSOFT VISUAL STUDIO 14.0\VC\INCLUDE\CFLOAT
C:\PROGRAM FILES (X86)\MICROSOFT VISUAL STUDIO 14.0\VC\INCLUDE\CLIMITS
C:\PROGRAM FILES (X86)\MICROSOFT VISUAL STUDIO 14.0\VC\INCLUDE\CMATH
C:\PROGRAM FILES (X86)\MICROSOFT VISUAL STUDIO 14.0\VC\INCLUDE\XTGMATH.H
C:\PROGRAM FILES (X86)\MICROSOFT VISUAL STUDIO 14.0\VC\INCLUDE\XTR1COMMON
C:\PROGRAM FILES (X86)\MICROSOFT VISUAL STUDIO 14.0\VC\INCLUDE\CWCHAR
C:\PROGRAM FILES (X86)\WINDOWS KITS\10\INCLUDE\10.0.10240.0\UCRT\WCHAR.H
C:\PROGRAM FILES (X86)\WINDOWS KITS\10\INCLUDE\10.0.10240.0\UCRT\CORECRT_WCONIO.H
C:\PROGRAM FILES (X86)\WINDOWS KITS\10\INCLUDE\10.0.10240.0\UCRT\CORECRT_STDIO_CONFIG.H
C:\PROGRAM FILES (X86)\WINDOWS KITS\10\INCLUDE\10.0.10240.0\UCRT\CORECRT_WCTYPE.H
C:\PROGRAM FILES (X86)\WINDOWS KITS\10\INCLUDE\10.0.10240.0\UCRT\CORECRT_WDIRECT.H
C:\PROGRAM FILES (X86)\WINDOWS KITS\10\INCLUDE\10.0.10240.0\UCRT\CORECRT_WIO.H
C:\PROGRAM FILES (X86)\WINDOWS KITS\10\INCLUDE\10.0.10240.0\UCRT\CORECRT_SHARE.H
C:\PROGRAM FILES (X86)\WINDOWS KITS\10\INCLUDE\10.0.10240.0\UCRT\CORECRT_WPROCESS.H
C:\PROGRAM FILES (X86)\WINDOWS KITS\10\INCLUDE\10.0.10240.0\UCRT\CORECRT_WSTDIO.H
C:\PROGRAM FILES (X86)\WINDOWS KITS\10\INCLUDE\10.0.10240.0\UCRT\CORECRT_WTIME.H
C:\PROGRAM FILES (X86)\WINDOWS KITS\10\INCLUDE\10.0.10240.0\UCRT\SYS\STAT.H
C:\PROGRAM FILES (X86)\WINDOWS KITS\10\INCLUDE\10.0.10240.0\UCRT\SYS\TYPES.H
C:\PROGRAM FILES (X86)\MICROSOFT VISUAL STUDIO 14.0\VC\INCLUDE\XSTDDEF
C:\PROGRAM FILES (X86)\MICROSOFT VISUAL STUDIO 14.0\VC\INCLUDE\CSTDDEF
C:\PROGRAM FILES (X86)\MICROSOFT VISUAL STUDIO 14.0\VC\INCLUDE\INITIALIZER_LIST
C:\PROGRAM FILES (X86)\MICROSOFT VISUAL STUDIO 14.0\VC\INCLUDE\NEW
C:\PROGRAM FILES (X86)\MICROSOFT VISUAL STUDIO 14.0\VC\INCLUDE\EXCEPTION
C:\PROGRAM FILES (X86)\MICROSOFT VISUAL STUDIO 14.0\VC\INCLUDE\TYPE_TRAITS
C:\PROGRAM FILES (X86)\WINDOWS KITS\10\INCLUDE\10.0.10240.0\UCRT\MALLOC.H
C:\PROGRAM FILES (X86)\MICROSOFT VISUAL STUDIO 14.0\VC\INCLUDE\VCRUNTIME_EXCEPTION.H
C:\PROGRAM FILES (X86)\MICROSOFT VISUAL STUDIO 14.0\VC\INCLUDE\EH.H
C:\PROGRAM FILES (X86)\WINDOWS KITS\10\INCLUDE\10.0.10240.0\UCRT\CORECRT_TERMINATE.H
C:\PROGRAM FILES (X86)\MICROSOFT VISUAL STUDIO 14.0\VC\INCLUDE\VCRUNTIME_NEW.H
C:\PROGRAM FILES (X86)\MICROSOFT VISUAL STUDIO 14.0\VC\INCLUDE\XUTILITY
C:\PROGRAM FILES (X86)\MICROSOFT VISUAL STUDIO 14.0\VC\INCLUDE\UTILITY
C:\PROGRAM FILES (X86)\MICROSOFT VISUAL STUDIO 14.0\VC\INCLUDE\IOSFWD
C:\PROGRAM FILES (X86)\MICROSOFT VISUAL STUDIO 14.0\VC\INCLUDE\CSTDIO
C:\PROGRAM FILES (X86)\WINDOWS KITS\10\INCLUDE\10.0.10240.0\UCRT\STDIO.H
C:\PROGRAM FILES (X86)\MICROSOFT VISUAL STUDIO 14.0\VC\INCLUDE\CSTRING
C:\PROGRAM FILES (X86)\WINDOWS KITS\10\INCLUDE\10.0.10240.0\UCRT\CRTDBG.H
C:\PROGRAM FILES (X86)\MICROSOFT VISUAL STUDIO 14.0\VC\INCLUDE\VCRUNTIME_NEW_DEBUG.H
C:\PROGRAM FILES (X86)\MICROSOFT VISUAL STUDIO 14.0\VC\INCLUDE\XATOMIC0.H
C:\PROGRAM FILES (X86)\MICROSOFT VISUAL STUDIO 14.0\VC\INCLUDE\INTRIN.H
C:\PROGRAM FILES (X86)\MICROSOFT VISUAL STUDIO 14.0\VC\INCLUDE\SETJMP.H
C:\PROGRAM FILES (X86)\MICROSOFT VISUAL STUDIO 14.0\VC\INCLUDE\IMMINTRIN.H
C:\PROGRAM FILES (X86)\MICROSOFT VISUAL STUDIO 14.0\VC\INCLUDE\WMMINTRIN.H
C:\PROGRAM FILES (X86)\MICROSOFT VISUAL STUDIO 14.0\VC\INCLUDE\NMMINTRIN.H
C:\PROGRAM FILES (X86)\MICROSOFT VISUAL STUDIO 14.0\VC\INCLUDE\SMMINTRIN.H
C:\PROGRAM FILES (X86)\MICROSOFT VISUAL STUDIO 14.0\VC\INCLUDE\TMMINTRIN.H
C:\PROGRAM FILES (X86)\MICROSOFT VISUAL STUDIO 14.0\VC\INCLUDE\PMMINTRIN.H
C:\PROGRAM FILES (X86)\MICROSOFT VISUAL STUDIO 14.0\VC\INCLUDE\EMMINTRIN.H
C:\PROGRAM FILES (X86)\MICROSOFT VISUAL STUDIO 14.0\VC\INCLUDE\XMMINTRIN.H
C:\PROGRAM FILES (X86)\MICROSOFT VISUAL STUDIO 14.0\VC\INCLUDE\MMINTRIN.H
C:\PROGRAM FILES (X86)\MICROSOFT VISUAL STUDIO 14.0\VC\INCLUDE\AMMINTRIN.H
C:\PROGRAM FILES (X86)\MICROSOFT VISUAL STUDIO 14.0\VC\INCLUDE\MM3DNOW.H
C:\USERS\DANNY\DESKTOP\BOX2D-MASTER\BOX2D\BOX2D\COLLISION\B2DISTANCE.H
C:\USERS\DANNY\DESKTOP\BOX2D-MASTER\BOX2D\BOX2D\COLLISION\B2TIMEOFIMPACT.H
C:\USERS\DANNY\DESKTOP\BOX2D-MASTER\BOX2D\BOX2D\DYNAMICS\B2BODY.H
C:\PROGRAM FILES (X86)\MICROSOFT VISUAL STUDIO 14.0\VC\INCLUDE\MEMORY
C:\PROGRAM FILES (X86)\MICROSOFT VISUAL STUDIO 14.0\VC\INCLUDE\TYPEINFO
C:\PROGRAM FILES (X86)\MICROSOFT VISUAL STUDIO 14.0\VC\INCLUDE\VCRUNTIME_TYPEINFO.H
C:\USERS\DANNY\DESKTOP\BOX2D-MASTER\BOX2D\BOX2D\DYNAMICS\B2FIXTURE.H
C:\USERS\DANNY\DESKTOP\BOX2D-MASTER\BOX2D\BOX2D\DYNAMICS\B2WORLDCALLBACKS.H
C:\USERS\DANNY\DESKTOP\BOX2D-MASTER\BOX2D\BOX2D\DYNAMICS\B2TIMESTEP.H
C:\USERS\DANNY\DESKTOP\BOX2D-MASTER\BOX2D\BOX2D\DYNAMICS\B2WORLD.H
C:\USERS\DANNY\DESKTOP\BOX2D-MASTER\BOX2D\BOX2D\COMMON\B2STACKALLOCATOR.H
C:\USERS\DANNY\DESKTOP\BOX2D-MASTER\BOX2D\BOX2D\DYNAMICS\B2CONTACTMANAGER.H
C:\USERS\DANNY\DESKTOP\BOX2D-MASTER\BOX2D\BOX2D\DYNAMICS\CONTACTS\B2CONTACT.H
C:\USERS\DANNY\DESKTOP\BOX2D-MASTER\BOX2D\BOX2D\DYNAMICS\JOINTS\B2DISTANCEJOINT.H
C:\USERS\DANNY\DESKTOP\BOX2D-MASTER\BOX2D\BOX2D\DYNAMICS\JOINTS\B2JOINT.H
C:\USERS\DANNY\DESKTOP\BOX2D-MASTER\BOX2D\BOX2D\DYNAMICS\JOINTS\B2FRICTIONJOINT.H
C:\USERS\DANNY\DESKTOP\BOX2D-MASTER\BOX2D\BOX2D\DYNAMICS\JOINTS\B2GEARJOINT.H
C:\USERS\DANNY\DESKTOP\BOX2D-MASTER\BOX2D\BOX2D\DYNAMICS\JOINTS\B2MOTORJOINT.H
C:\USERS\DANNY\DESKTOP\BOX2D-MASTER\BOX2D\BOX2D\DYNAMICS\JOINTS\B2MOUSEJOINT.H
C:\USERS\DANNY\DESKTOP\BOX2D-MASTER\BOX2D\BOX2D\DYNAMICS\JOINTS\B2PRISMATICJOINT.H
C:\USERS\DANNY\DESKTOP\BOX2D-MASTER\BOX2D\BOX2D\DYNAMICS\JOINTS\B2PULLEYJOINT.H
C:\USERS\DANNY\DESKTOP\BOX2D-MASTER\BOX2D\BOX2D\DYNAMICS\JOINTS\B2REVOLUTEJOINT.H
C:\USERS\DANNY\DESKTOP\BOX2D-MASTER\BOX2D\BOX2D\DYNAMICS\JOINTS\B2ROPEJOINT.H
C:\USERS\DANNY\DESKTOP\BOX2D-MASTER\BOX2D\BOX2D\DYNAMICS\JOINTS\B2WELDJOINT.H
C:\USERS\DANNY\DESKTOP\BOX2D-MASTER\BOX2D\BOX2D\DYNAMICS\JOINTS\B2WHEELJOINT.H
C:\USERS\DANNY\DESKTOP\BOX2D-MASTER\BOX2D\GLEW\GLEW.H
C:\PROGRAM FILES (X86)\WINDOWS KITS\8.1\INCLUDE\UM\GL\GLU.H
C:\PROGRAM FILES (X86)\WINDOWS KITS\8.1\INCLUDE\SHARED\WINAPIFAMILY.H
C:\PROGRAM FILES (X86)\WINDOWS KITS\8.1\INCLUDE\UM\GL\GL.H
C:\USERS\DANNY\DESKTOP\BOX2D-MASTER\BOX2D\GLFW\GLFW3.H
C:\PROGRAM FILES (X86)\MICROSOFT VISUAL STUDIO 14.0\VC\INCLUDE\STDARG.H
C:\USERS\DANNY\DESKTOP\BOX2D-MASTER\BOX2D\TESTBED\FRAMEWORK\RENDERGL3.H
