^C:\USERS\DANNY\DOCUMENTS\CSE-380-CLOUD-9\TEMP\TINYXML\DEBUG\STDAFX.OBJ|C:\USERS\DANNY\DOCUMENTS\CSE-380-CLOUD-9\TEMP\TINYXML\DEBUG\TINYSTR.OBJ|C:\USERS\DANNY\DOCUMENTS\CSE-380-CLOUD-9\TEMP\TINYXML\DEBUG\TINYXML.OBJ|C:\USERS\DANNY\DOCUMENTS\CSE-380-CLOUD-9\TEMP\TINYXML\DEBUG\TINYXMLERROR.OBJ|C:\USERS\DANNY\DOCUMENTS\CSE-380-CLOUD-9\TEMP\TINYXML\DEBUG\TINYXMLPARSER.OBJ|C:\USERS\DANNY\DOCUMENTS\CSE-380-CLOUD-9\TEMP\TINYXML\DEBUG\XMLTEST.OBJ
/OUT:"C:\USERS\DANNY\DOCUMENTS\CSE-380-CLOUD-9\COMMON\TINYXML.LIB" /NOLOGO "C:\USERS\DANNY\DOCUMENTS\CSE-380-CLOUD-9\TEMP\TINYXML\DEBUG\TINYSTR.OBJ""C:\USERS\DANNY\DOCUMENTS\CSE-380-CLOUD-9\TEMP\TINYXML\DEBUG\TINYXML.OBJ""C:\USERS\DANNY\DOCUMENTS\CSE-380-CLOUD-9\TEMP\TINYXML\DEBUG\TINYXMLERROR.OBJ""C:\USERS\DANNY\DOCUMENTS\CSE-380-CLOUD-9\TEMP\TINYXML\DEBUG\TINYXMLPARSER.OBJ""C:\USERS\DANNY\DOCUMENTS\CSE-380-CLOUD-9\TEMP\TINYXML\DEBUG\XMLTEST.OBJ""C:\USERS\DANNY\DOCUMENTS\CSE-380-CLOUD-9\TEMP\TINYXML\DEBUG\STDAFX.OBJ"
^C:\USERS\DANIE\DOCUMENTS\CSE-380-CLOUD-9\TEMP\TINYXML\DEBUG\STDAFX.OBJ|C:\USERS\DANIE\DOCUMENTS\CSE-380-CLOUD-9\TEMP\TINYXML\DEBUG\TINYSTR.OBJ|C:\USERS\DANIE\DOCUMENTS\CSE-380-CLOUD-9\TEMP\TINYXML\DEBUG\TINYXML.OBJ|C:\USERS\DANIE\DOCUMENTS\CSE-380-CLOUD-9\TEMP\TINYXML\DEBUG\TINYXMLERROR.OBJ|C:\USERS\DANIE\DOCUMENTS\CSE-380-CLOUD-9\TEMP\TINYXML\DEBUG\TINYXMLPARSER.OBJ|C:\USERS\DANIE\DOCUMENTS\CSE-380-CLOUD-9\TEMP\TINYXML\DEBUG\XMLTEST.OBJ
/OUT:"C:\USERS\DANIE\DOCUMENTS\CSE-380-CLOUD-9\COMMON\TINYXML.LIB" /NOLOGO "C:\USERS\DANIE\DOCUMENTS\CSE-380-CLOUD-9\TEMP\TINYXML\DEBUG\TINYSTR.OBJ""C:\USERS\DANIE\DOCUMENTS\CSE-380-CLOUD-9\TEMP\TINYXML\DEBUG\TINYXML.OBJ""C:\USERS\DANIE\DOCUMENTS\CSE-380-CLOUD-9\TEMP\TINYXML\DEBUG\TINYXMLERROR.OBJ""C:\USERS\DANIE\DOCUMENTS\CSE-380-CLOUD-9\TEMP\TINYXML\DEBUG\TINYXMLPARSER.OBJ""C:\USERS\DANIE\DOCUMENTS\CSE-380-CLOUD-9\TEMP\TINYXML\DEBUG\XMLTEST.OBJ""C:\USERS\DANIE\DOCUMENTS\CSE-380-CLOUD-9\TEMP\TINYXML\DEBUG\STDAFX.OBJ"
