^C:\USERS\DANNY\DESKTOP\BOX2D-MASTER\BOX2D\GLFW\CLIPBOARD.C|C:\USERS\DANNY\DESKTOP\BOX2D-MASTER\BOX2D\GLFW\CONTEXT.C|C:\USERS\DANNY\DESKTOP\BOX2D-MASTER\BOX2D\GLFW\GAMMA.C|C:\USERS\DANNY\DESKTOP\BOX2D-MASTER\BOX2D\GLFW\INIT.C|C:\USERS\DANNY\DESKTOP\BOX2D-MASTER\BOX2D\GLFW\INPUT.C|C:\USERS\DANNY\DESKTOP\BOX2D-MASTER\BOX2D\GLFW\JOYSTICK.C|C:\USERS\DANNY\DESKTOP\BOX2D-MASTER\BOX2D\GLFW\MONITOR.C|C:\USERS\DANNY\DESKTOP\BOX2D-MASTER\BOX2D\GLFW\TIME.C|C:\USERS\DANNY\DESKTOP\BOX2D-MASTER\BOX2D\GLFW\WGL_CONTEXT.C|C:\USERS\DANNY\DESKTOP\BOX2D-MASTER\BOX2D\GLFW\WIN32_CLIPBOARD.C|C:\USERS\DANNY\DESKTOP\BOX2D-MASTER\BOX2D\GLFW\WIN32_GAMMA.C|C:\USERS\DANNY\DESKTOP\BOX2D-MASTER\BOX2D\GLFW\WIN32_INIT.C|C:\USERS\DANNY\DESKTOP\BOX2D-MASTER\BOX2D\GLFW\WIN32_JOYSTICK.C|C:\USERS\DANNY\DESKTOP\BOX2D-MASTER\BOX2D\GLFW\WIN32_MONITOR.C|C:\USERS\DANNY\DESKTOP\BOX2D-MASTER\BOX2D\GLFW\WIN32_TIME.C|C:\USERS\DANNY\DESKTOP\BOX2D-MASTER\BOX2D\GLFW\WIN32_WINDOW.C|C:\USERS\DANNY\DESKTOP\BOX2D-MASTER\BOX2D\GLFW\WINDOW.C
C:\USERS\DANNY\DESKTOP\BOX2D-MASTER\BOX2D\BUILD\VS2013\BIN\X32\DEBUG\GLFW.PDB
C:\USERS\DANNY\DESKTOP\BOX2D-MASTER\BOX2D\BUILD\VS2013\BIN\X32\DEBUG\GLFW.IDB
C:\USERS\DANNY\DESKTOP\BOX2D-MASTER\BOX2D\BUILD\VS2013\OBJ\X32\DEBUG\GLFW\CLIPBOARD.OBJ
C:\USERS\DANNY\DESKTOP\BOX2D-MASTER\BOX2D\BUILD\VS2013\OBJ\X32\DEBUG\GLFW\CONTEXT.OBJ
C:\USERS\DANNY\DESKTOP\BOX2D-MASTER\BOX2D\BUILD\VS2013\OBJ\X32\DEBUG\GLFW\GAMMA.OBJ
C:\USERS\DANNY\DESKTOP\BOX2D-MASTER\BOX2D\BUILD\VS2013\OBJ\X32\DEBUG\GLFW\INIT.OBJ
C:\USERS\DANNY\DESKTOP\BOX2D-MASTER\BOX2D\BUILD\VS2013\OBJ\X32\DEBUG\GLFW\INPUT.OBJ
C:\USERS\DANNY\DESKTOP\BOX2D-MASTER\BOX2D\BUILD\VS2013\OBJ\X32\DEBUG\GLFW\JOYSTICK.OBJ
C:\USERS\DANNY\DESKTOP\BOX2D-MASTER\BOX2D\BUILD\VS2013\OBJ\X32\DEBUG\GLFW\MONITOR.OBJ
C:\USERS\DANNY\DESKTOP\BOX2D-MASTER\BOX2D\BUILD\VS2013\OBJ\X32\DEBUG\GLFW\TIME.OBJ
C:\USERS\DANNY\DESKTOP\BOX2D-MASTER\BOX2D\BUILD\VS2013\OBJ\X32\DEBUG\GLFW\WGL_CONTEXT.OBJ
C:\USERS\DANNY\DESKTOP\BOX2D-MASTER\BOX2D\BUILD\VS2013\OBJ\X32\DEBUG\GLFW\WIN32_CLIPBOARD.OBJ
C:\USERS\DANNY\DESKTOP\BOX2D-MASTER\BOX2D\BUILD\VS2013\OBJ\X32\DEBUG\GLFW\WIN32_GAMMA.OBJ
C:\USERS\DANNY\DESKTOP\BOX2D-MASTER\BOX2D\BUILD\VS2013\OBJ\X32\DEBUG\GLFW\WIN32_INIT.OBJ
C:\USERS\DANNY\DESKTOP\BOX2D-MASTER\BOX2D\BUILD\VS2013\OBJ\X32\DEBUG\GLFW\WIN32_JOYSTICK.OBJ
C:\USERS\DANNY\DESKTOP\BOX2D-MASTER\BOX2D\BUILD\VS2013\OBJ\X32\DEBUG\GLFW\WIN32_MONITOR.OBJ
C:\USERS\DANNY\DESKTOP\BOX2D-MASTER\BOX2D\BUILD\VS2013\OBJ\X32\DEBUG\GLFW\WIN32_TIME.OBJ
C:\USERS\DANNY\DESKTOP\BOX2D-MASTER\BOX2D\BUILD\VS2013\OBJ\X32\DEBUG\GLFW\WIN32_WINDOW.OBJ
C:\USERS\DANNY\DESKTOP\BOX2D-MASTER\BOX2D\BUILD\VS2013\OBJ\X32\DEBUG\GLFW\WINDOW.OBJ
^C:\USERS\DANNY\DESKTOP\BOX2D-MASTER\BOX2D\GLFW\CLIPBOARD.C
C:\USERS\DANNY\DESKTOP\BOX2D-MASTER\BOX2D\BUILD\VS2013\BIN\X32\DEBUG\GLFW.PDB
^C:\USERS\DANNY\DESKTOP\BOX2D-MASTER\BOX2D\GLFW\CONTEXT.C
C:\USERS\DANNY\DESKTOP\BOX2D-MASTER\BOX2D\BUILD\VS2013\BIN\X32\DEBUG\GLFW.PDB
^C:\USERS\DANNY\DESKTOP\BOX2D-MASTER\BOX2D\GLFW\GAMMA.C
C:\USERS\DANNY\DESKTOP\BOX2D-MASTER\BOX2D\BUILD\VS2013\BIN\X32\DEBUG\GLFW.PDB
^C:\USERS\DANNY\DESKTOP\BOX2D-MASTER\BOX2D\GLFW\INIT.C
C:\USERS\DANNY\DESKTOP\BOX2D-MASTER\BOX2D\BUILD\VS2013\BIN\X32\DEBUG\GLFW.PDB
^C:\USERS\DANNY\DESKTOP\BOX2D-MASTER\BOX2D\GLFW\INPUT.C
C:\USERS\DANNY\DESKTOP\BOX2D-MASTER\BOX2D\BUILD\VS2013\BIN\X32\DEBUG\GLFW.PDB
^C:\USERS\DANNY\DESKTOP\BOX2D-MASTER\BOX2D\GLFW\JOYSTICK.C
C:\USERS\DANNY\DESKTOP\BOX2D-MASTER\BOX2D\BUILD\VS2013\BIN\X32\DEBUG\GLFW.PDB
^C:\USERS\DANNY\DESKTOP\BOX2D-MASTER\BOX2D\GLFW\MONITOR.C
C:\USERS\DANNY\DESKTOP\BOX2D-MASTER\BOX2D\BUILD\VS2013\BIN\X32\DEBUG\GLFW.PDB
^C:\USERS\DANNY\DESKTOP\BOX2D-MASTER\BOX2D\GLFW\TIME.C
C:\USERS\DANNY\DESKTOP\BOX2D-MASTER\BOX2D\BUILD\VS2013\BIN\X32\DEBUG\GLFW.PDB
^C:\USERS\DANNY\DESKTOP\BOX2D-MASTER\BOX2D\GLFW\WGL_CONTEXT.C
C:\USERS\DANNY\DESKTOP\BOX2D-MASTER\BOX2D\BUILD\VS2013\BIN\X32\DEBUG\GLFW.PDB
^C:\USERS\DANNY\DESKTOP\BOX2D-MASTER\BOX2D\GLFW\WIN32_CLIPBOARD.C
C:\USERS\DANNY\DESKTOP\BOX2D-MASTER\BOX2D\BUILD\VS2013\BIN\X32\DEBUG\GLFW.PDB
^C:\USERS\DANNY\DESKTOP\BOX2D-MASTER\BOX2D\GLFW\WIN32_GAMMA.C
C:\USERS\DANNY\DESKTOP\BOX2D-MASTER\BOX2D\BUILD\VS2013\BIN\X32\DEBUG\GLFW.PDB
^C:\USERS\DANNY\DESKTOP\BOX2D-MASTER\BOX2D\GLFW\WIN32_INIT.C
C:\USERS\DANNY\DESKTOP\BOX2D-MASTER\BOX2D\BUILD\VS2013\BIN\X32\DEBUG\GLFW.PDB
^C:\USERS\DANNY\DESKTOP\BOX2D-MASTER\BOX2D\GLFW\WIN32_JOYSTICK.C
C:\USERS\DANNY\DESKTOP\BOX2D-MASTER\BOX2D\BUILD\VS2013\BIN\X32\DEBUG\GLFW.PDB
^C:\USERS\DANNY\DESKTOP\BOX2D-MASTER\BOX2D\GLFW\WIN32_MONITOR.C
C:\USERS\DANNY\DESKTOP\BOX2D-MASTER\BOX2D\BUILD\VS2013\BIN\X32\DEBUG\GLFW.PDB
^C:\USERS\DANNY\DESKTOP\BOX2D-MASTER\BOX2D\GLFW\WIN32_TIME.C
C:\USERS\DANNY\DESKTOP\BOX2D-MASTER\BOX2D\BUILD\VS2013\BIN\X32\DEBUG\GLFW.PDB
^C:\USERS\DANNY\DESKTOP\BOX2D-MASTER\BOX2D\GLFW\WIN32_WINDOW.C
C:\USERS\DANNY\DESKTOP\BOX2D-MASTER\BOX2D\BUILD\VS2013\BIN\X32\DEBUG\GLFW.PDB
^C:\USERS\DANNY\DESKTOP\BOX2D-MASTER\BOX2D\GLFW\WINDOW.C
C:\USERS\DANNY\DESKTOP\BOX2D-MASTER\BOX2D\BUILD\VS2013\BIN\X32\DEBUG\GLFW.PDB
