^C:\USERS\DANIE\DOCUMENTS\CSE-380-CLOUD-9\APPS\CLOUD9\DATA\LEVELS\LEVELS.XSD
C:\USERS\DANIE\DOCUMENTS\CSE-380-CLOUD-9\GAMES\CLOUD9\LEVELS.H
^C:\USERS\DANIE\DOCUMENTS\CSE-380-CLOUD-9\APPS\CLOUD9\DATA\LEVELS\SPRITE_TYPE_LIST.XSD
C:\USERS\DANIE\DOCUMENTS\CSE-380-CLOUD-9\GAMES\CLOUD9\SPRITE_TYPE_LIST.H
^C:\USERS\DANIE\DOCUMENTS\CSE-380-CLOUD-9\APPS\CLOUD9\DATA\SPRITE_TYPES\SPRITE_TYPE.XSD
C:\USERS\DANIE\DOCUMENTS\CSE-380-CLOUD-9\GAMES\CLOUD9\SPRITE_TYPE.H
^C:\USERS\DANIE\DOCUMENTS\CSE-380-CLOUD-9\APPS\CLOUD9\DATA\SPRITE_TYPES\SPRITE_TYPE_LIST.XSD
C:\USERS\DANIE\DOCUMENTS\CSE-380-CLOUD-9\GAMES\CLOUD9\SPRITE_TYPE_LIST.H
