^C:\USERS\DANNY\DOCUMENTS\CSE-380-CLOUD-9\TEMP\BUGS\DEBUG\BUGSAPP.OBJ|C:\USERS\DANNY\DOCUMENTS\CSE-380-CLOUD-9\TEMP\BUGS\DEBUG\BUGSBUTTONEVENTHANDLER.OBJ|C:\USERS\DANNY\DOCUMENTS\CSE-380-CLOUD-9\TEMP\BUGS\DEBUG\BUGSKEYEVENTHANDLER.OBJ|C:\USERS\DANNY\DOCUMENTS\CSE-380-CLOUD-9\TEMP\BUGS\DEBUG\BUGSMOUSEEVENTHANDLER.OBJ|C:\USERS\DANNY\DOCUMENTS\CSE-380-CLOUD-9\TEMP\BUGS\DEBUG\BUGSSTATEMACHINE.OBJ|C:\USERS\DANNY\DOCUMENTS\CSE-380-CLOUD-9\TEMP\BUGS\DEBUG\BUGSTEXTGENERATOR.OBJ|C:\USERS\DANNY\DOCUMENTS\CSE-380-CLOUD-9\TEMP\BUGS\DEBUG\STDAFX.OBJ
C:\USERS\DANNY\DOCUMENTS\CSE-380-CLOUD-9\APPS\BUGS\BUGS.ILK
C:\USERS\DANNY\DOCUMENTS\CSE-380-CLOUD-9\APPS\BUGS\BUGS.EXE
C:\USERS\DANNY\DOCUMENTS\CSE-380-CLOUD-9\APPS\BUGS\BUGS.PDB
