^C:\USERS\DANNY\DOCUMENTS\CSE-380-CLOUD-9\APPS\BUGS\DATA\SPRITE_TYPES\SPRITE_TYPE.XSD
C:\WINDOWS\MICROSOFT.NET\FRAMEWORK\V2.0.50727\MSCORWKS.DLL
C:\WINDOWS\MICROSOFT.NET\FRAMEWORK\V4.0.30319\CLR.DLL
C:\PROGRAM FILES (X86)\MICROSOFT SDKS\WINDOWS\V10.0A\BIN\NETFX 4.6 TOOLS\XSD.EXE
C:\WINDOWS\MICROSOFT.NET\FRAMEWORK\V4.0.30319\CONFIG\MACHINE.CONFIG
C:\WINDOWS\GLOBALIZATION\SORTING\SORTDEFAULT.NLS
C:\WINDOWS\ASSEMBLY\NATIVEIMAGES_V4.0.30319_32\MSCORLIB\35849A60913000FE067EB742F5CABEC9\MSCORLIB.NI.DLL.AUX
C:\WINDOWS\ASSEMBLY\NATIVEIMAGES_V4.0.30319_32\XSD\12104B6B7B738AE3881B815228B8A71B\XSD.NI.EXE.AUX
C:\WINDOWS\ASSEMBLY\PUBPOL37.DAT
C:\WINDOWS\ASSEMBLY\NATIVEIMAGES_V4.0.30319_32\SYSTEM\84717DBDBD5B20D074C7B41F9CEA945E\SYSTEM.NI.DLL.AUX
C:\WINDOWS\ASSEMBLY\NATIVEIMAGES_V4.0.30319_32\SYSTEM.XML\6E5368FE9D3A03444541FEA01317C1DF\SYSTEM.XML.NI.DLL.AUX
C:\WINDOWS\ASSEMBLY\NATIVEIMAGES_V4.0.30319_32\SYSTEM.CONFIGURATION\3D85036EB044DE5B881A58146FFD191B\SYSTEM.CONFIGURATION.NI.DLL.AUX
C:\WINDOWS\ASSEMBLY\NATIVEIMAGES_V4.0.30319_32\SYSTEM.CORE\173F95A05F37D0E4AD3FA0991D1F9216\SYSTEM.CORE.NI.DLL.AUX
C:\WINDOWS\MICROSOFT.NET\ASSEMBLY\GAC_MSIL\CPPCODEPROVIDER\V4.0_10.0.0.0__B03F5F7F11D50A3A\CPPCODEPROVIDER.DLL
C:\WINDOWS\ASSEMBLY\NATIVEIMAGES_V4.0.30319_32\SYSTEM.DESIGN\EB96B30EB9A4360F2B49DB19D79A4421\SYSTEM.DESIGN.NI.DLL.AUX
C:\WINDOWS\ASSEMBLY\NATIVEIMAGES_V4.0.30319_32\SYSTEM.DATA\DEA2CCA0628807B29E1F1C01467B7181\SYSTEM.DATA.NI.DLL.AUX
C:\WINDOWS\MICROSOFT.NET\ASSEMBLY\GAC_32\SYSTEM.DATA\V4.0_4.0.0.0__B77A5C561934E089\SYSTEM.DATA.DLL
C:\WINDOWS\ASSEMBLY\NATIVEIMAGES_V4.0.30319_32\SYSTEM.NUMERICS\A4048E3631AA05C2FAFEBB98163BB997\SYSTEM.NUMERICS.NI.DLL.AUX
C:\WINDOWS\MICROSOFT.NET\FRAMEWORK\V4.0.30319\MSCORRC.DLL
C:\WINDOWS\MICROSOFT.NET\FRAMEWORK\V4.0.30319\SYSTEM.DLL
C:\WINDOWS\MICROSOFT.NET\FRAMEWORK\V4.0.30319\SYSTEM.DATA.DLL
C:\WINDOWS\MICROSOFT.NET\FRAMEWORK\V4.0.30319\SYSTEM.XML.DLL
^C:\USERS\DANNY\DOCUMENTS\CSE-380-CLOUD-9\APPS\BUGS\DATA\SPRITE_TYPES\SPRITE_TYPE_LIST.XSD
C:\WINDOWS\MICROSOFT.NET\FRAMEWORK\V2.0.50727\MSCORWKS.DLL
C:\WINDOWS\MICROSOFT.NET\FRAMEWORK\V4.0.30319\CLR.DLL
C:\PROGRAM FILES (X86)\MICROSOFT SDKS\WINDOWS\V10.0A\BIN\NETFX 4.6 TOOLS\XSD.EXE
C:\WINDOWS\MICROSOFT.NET\FRAMEWORK\V4.0.30319\CONFIG\MACHINE.CONFIG
C:\WINDOWS\GLOBALIZATION\SORTING\SORTDEFAULT.NLS
C:\WINDOWS\ASSEMBLY\NATIVEIMAGES_V4.0.30319_32\MSCORLIB\35849A60913000FE067EB742F5CABEC9\MSCORLIB.NI.DLL.AUX
C:\WINDOWS\ASSEMBLY\NATIVEIMAGES_V4.0.30319_32\XSD\12104B6B7B738AE3881B815228B8A71B\XSD.NI.EXE.AUX
C:\WINDOWS\ASSEMBLY\PUBPOL37.DAT
C:\WINDOWS\ASSEMBLY\NATIVEIMAGES_V4.0.30319_32\SYSTEM\84717DBDBD5B20D074C7B41F9CEA945E\SYSTEM.NI.DLL.AUX
C:\WINDOWS\ASSEMBLY\NATIVEIMAGES_V4.0.30319_32\SYSTEM.XML\6E5368FE9D3A03444541FEA01317C1DF\SYSTEM.XML.NI.DLL.AUX
C:\WINDOWS\ASSEMBLY\NATIVEIMAGES_V4.0.30319_32\SYSTEM.CONFIGURATION\3D85036EB044DE5B881A58146FFD191B\SYSTEM.CONFIGURATION.NI.DLL.AUX
C:\WINDOWS\ASSEMBLY\NATIVEIMAGES_V4.0.30319_32\SYSTEM.CORE\173F95A05F37D0E4AD3FA0991D1F9216\SYSTEM.CORE.NI.DLL.AUX
C:\WINDOWS\MICROSOFT.NET\ASSEMBLY\GAC_MSIL\CPPCODEPROVIDER\V4.0_10.0.0.0__B03F5F7F11D50A3A\CPPCODEPROVIDER.DLL
C:\WINDOWS\ASSEMBLY\NATIVEIMAGES_V4.0.30319_32\SYSTEM.DESIGN\EB96B30EB9A4360F2B49DB19D79A4421\SYSTEM.DESIGN.NI.DLL.AUX
C:\WINDOWS\ASSEMBLY\NATIVEIMAGES_V4.0.30319_32\SYSTEM.DATA\DEA2CCA0628807B29E1F1C01467B7181\SYSTEM.DATA.NI.DLL.AUX
C:\WINDOWS\MICROSOFT.NET\ASSEMBLY\GAC_32\SYSTEM.DATA\V4.0_4.0.0.0__B77A5C561934E089\SYSTEM.DATA.DLL
C:\WINDOWS\ASSEMBLY\NATIVEIMAGES_V4.0.30319_32\SYSTEM.NUMERICS\A4048E3631AA05C2FAFEBB98163BB997\SYSTEM.NUMERICS.NI.DLL.AUX
C:\WINDOWS\MICROSOFT.NET\FRAMEWORK\V4.0.30319\MSCORRC.DLL
C:\WINDOWS\MICROSOFT.NET\FRAMEWORK\V4.0.30319\SYSTEM.DLL
C:\WINDOWS\MICROSOFT.NET\FRAMEWORK\V4.0.30319\SYSTEM.DATA.DLL
C:\WINDOWS\MICROSOFT.NET\FRAMEWORK\V4.0.30319\SYSTEM.XML.DLL
