^C:\USERS\DANNY\DOCUMENTS\CSE-380-CLOUD-9\APPS\BUGS\DATA\SPRITE_TYPES\SPRITE_TYPE.XSD
C:\USERS\DANNY\DOCUMENTS\CSE-380-CLOUD-9\GAMES\BUGS\SPRITE_TYPE.H
^C:\USERS\DANNY\DOCUMENTS\CSE-380-CLOUD-9\APPS\BUGS\DATA\SPRITE_TYPES\SPRITE_TYPE_LIST.XSD
C:\USERS\DANNY\DOCUMENTS\CSE-380-CLOUD-9\GAMES\BUGS\SPRITE_TYPE_LIST.H
