^C:\USERS\DANNY\DOCUMENTS\CSE-380-CLOUD-9\PLUGINS\XMLFILEIMPORTER\SRC\XMLFI\XMLFILEIMPORTER.CPP
/c /ZI /nologo /W3 /WX- /sdl /Od /Oy- /D WIN32 /D _DEBUG /D _LIB /D _UNICODE /D UNICODE /Gm /EHsc /RTC1 /MDd /GS /fp:precise /Zc:wchar_t /Zc:forScope /Zc:inline /Fo"C:\USERS\DANNY\DOCUMENTS\CSE-380-CLOUD-9\TEMP\XMLFILEIMPORTER\DEBUG\\" /Fd"C:\USERS\DANNY\DOCUMENTS\CSE-380-CLOUD-9\TEMP\XMLFILEIMPORTER\DEBUG\XMLFILEIMPORTER.PDB" /Gd /TP /analyze- C:\USERS\DANNY\DOCUMENTS\CSE-380-CLOUD-9\PLUGINS\XMLFILEIMPORTER\SRC\XMLFI\XMLFILEIMPORTER.CPP
^C:\USERS\DANNY\DOCUMENTS\CSE-380-CLOUD-9\PLUGINS\XMLFILEIMPORTER\SRC\XMLFI_VS\STDAFX.CPP
/c /ZI /nologo /W3 /WX- /sdl /Od /Oy- /D WIN32 /D _DEBUG /D _LIB /D _UNICODE /D UNICODE /Gm /EHsc /RTC1 /MDd /GS /fp:precise /Zc:wchar_t /Zc:forScope /Zc:inline /Fo"C:\USERS\DANNY\DOCUMENTS\CSE-380-CLOUD-9\TEMP\XMLFILEIMPORTER\DEBUG\\" /Fd"C:\USERS\DANNY\DOCUMENTS\CSE-380-CLOUD-9\TEMP\XMLFILEIMPORTER\DEBUG\XMLFILEIMPORTER.PDB" /Gd /TP /analyze- C:\USERS\DANNY\DOCUMENTS\CSE-380-CLOUD-9\PLUGINS\XMLFILEIMPORTER\SRC\XMLFI_VS\STDAFX.CPP
^C:\USERS\DANIE\DOCUMENTS\CSE-380-CLOUD-9\PLUGINS\XMLFILEIMPORTER\SRC\XMLFI\XMLFILEIMPORTER.CPP
/c /ZI /nologo /W3 /WX- /sdl /Od /Oy- /D WIN32 /D _DEBUG /D _LIB /D _UNICODE /D UNICODE /Gm /EHsc /RTC1 /MDd /GS /fp:precise /Zc:wchar_t /Zc:forScope /Zc:inline /Fo"C:\USERS\DANIE\DOCUMENTS\CSE-380-CLOUD-9\TEMP\XMLFILEIMPORTER\DEBUG\\" /Fd"C:\USERS\DANIE\DOCUMENTS\CSE-380-CLOUD-9\TEMP\XMLFILEIMPORTER\DEBUG\XMLFILEIMPORTER.PDB" /Gd /TP /analyze- C:\USERS\DANIE\DOCUMENTS\CSE-380-CLOUD-9\PLUGINS\XMLFILEIMPORTER\SRC\XMLFI\XMLFILEIMPORTER.CPP
^C:\USERS\DANIE\DOCUMENTS\CSE-380-CLOUD-9\PLUGINS\XMLFILEIMPORTER\SRC\XMLFI_VS\STDAFX.CPP
/c /ZI /nologo /W3 /WX- /sdl /Od /Oy- /D WIN32 /D _DEBUG /D _LIB /D _UNICODE /D UNICODE /Gm /EHsc /RTC1 /MDd /GS /fp:precise /Zc:wchar_t /Zc:forScope /Zc:inline /Fo"C:\USERS\DANIE\DOCUMENTS\CSE-380-CLOUD-9\TEMP\XMLFILEIMPORTER\DEBUG\\" /Fd"C:\USERS\DANIE\DOCUMENTS\CSE-380-CLOUD-9\TEMP\XMLFILEIMPORTER\DEBUG\XMLFILEIMPORTER.PDB" /Gd /TP /analyze- C:\USERS\DANIE\DOCUMENTS\CSE-380-CLOUD-9\PLUGINS\XMLFILEIMPORTER\SRC\XMLFI_VS\STDAFX.CPP
